@relation 'HTS data set-weka.filters.supervised.attribute.AttributeSelection-Eweka.attributeSelection.InfoGainAttributeEval-Sweka.attributeSelection.Ranker -T -1.7976931348623157E308 -N 6'

@attribute feature7 numeric
@attribute feature236 numeric
@attribute feature10 numeric
@attribute feature239 numeric
@attribute feature124 numeric
@attribute feature2 numeric
@attribute class {1,2,3,4,5,6,7,8,9,10}

@data
0.019786,0.013695,0.026413,0.02678,0.016207,0.02052,8
0.020134,0.014263,0.023606,0.023774,0.016055,0.019268,8
0.022504,0.01675,0.026215,0.026215,0.018984,0.022941,8
0.01888,0.013918,0.023911,0.023911,0.017231,0.021228,8
0.017626,0.0128,0.022049,0.022049,0.014855,0.018031,8
0.008277,0.008114,0.009293,0.010132,0.008372,0.008564,3
0.008291,0.008113,0.009491,0.010864,0.008127,0.008154,3
0.009442,0.009103,0.010819,0.011154,0.009271,0.009447,3
0.010147,0.009566,0.012909,0.012909,0.010551,0.011537,4
0.009795,0.009107,0.011154,0.011353,0.009937,0.010926,4
0.006132,0.006228,0.006699,0.009308,0.006072,0.005923,9
0.007527,0.006867,0.008515,0.008606,0.007598,0.008309,4
0.009066,0.008236,0.011032,0.011612,0.009237,0.010047,4
0.007653,0.00782,0.008865,0.01091,0.007405,0.007021,1
0.014234,0.013428,0.016831,0.017853,0.013371,0.013389,3
0.00897,0.008379,0.010605,0.010605,0.008562,0.008797,3
0.020817,0.016792,0.025849,0.025849,0.018328,0.020661,8
0,0,0,0,0,0,10
0.007011,0.00636,0.009705,0.009705,0.007527,0.008601,6
0.011228,0.008764,0.014817,0.014817,0.010556,0.012621,8
0.007522,0.006338,0.009277,0.009277,0.007896,0.009729,6
0.007655,0.006719,0.008621,0.008621,0.007946,0.00943,6
0.008071,0.006796,0.010712,0.010864,0.00873,0.011047,6
0.011213,0.009761,0.011994,0.012146,0.010509,0.011289,8
0.007853,0.006965,0.00853,0.008728,0.008457,0.010101,6
0.007488,0.007036,0.00856,0.008896,0.008039,0.008866,6
0.006793,0.00595,0.007797,0.00827,0.008112,0.010113,6
0.00722,0.006639,0.008881,0.008881,0.007796,0.008711,5
0.007579,0.006979,0.009354,0.009491,0.007945,0.0085,5
0.007474,0.006765,0.008469,0.008545,0.008241,0.009849,5
0.005812,0.005441,0.006546,0.006775,0.006958,0.008186,6
0.005328,0.005159,0.005722,0.005753,0.00579,0.006248,7
0.00511,0.004872,0.005966,0.005966,0.005505,0.006103,7
0.005336,0.004991,0.005859,0.006012,0.0058,0.006634,7
0.006207,0.005578,0.007279,0.007828,0.007479,0.009151,6
0.006124,0.005565,0.007462,0.007599,0.007448,0.009269,6
0.007474,0.006765,0.008469,0.008545,0.008241,0.009849,5
0.007912,0.007267,0.008942,0.009461,0.008923,0.010255,5
0.004981,0.004899,0.00528,0.00528,0.004947,0.004989,9
0.005557,0.005291,0.00618,0.00621,0.005848,0.00631,7
0.007033,0.006378,0.008408,0.008408,0.008052,0.009568,6
0.011123,0.008753,0.013016,0.013016,0.009756,0.011217,8
0.00847,0.008416,0.009293,0.0103,0.008612,0.008786,3
0.008124,0.007838,0.009613,0.009842,0.00841,0.008897,3
0.007808,0.007069,0.008484,0.008667,0.008261,0.009689,6
0.009559,0.008154,0.010544,0.010651,0.010667,0.013662,5
0.008091,0.007333,0.008865,0.008865,0.008994,0.010851,6
0.0075,0.007391,0.008225,0.00882,0.00705,0.006725,1
0.0068,0.006423,0.007462,0.007568,0.007581,0.008642,6
0.008419,0.008777,0.009461,0.011109,0.008895,0.008976,3
0.008419,0.008777,0.009461,0.011109,0.008895,0.008976,3
0.00994,0.00986,0.011688,0.012757,0.009831,0.009808,3
0.018671,0.014805,0.022202,0.023972,0.015648,0.017375,8
0.009672,0.010257,0.012024,0.016785,0.00938,0.008412,1
0.007995,0.008134,0.008759,0.009201,0.007689,0.007305,1
0.010026,0.009855,0.011536,0.012329,0.010126,0.01044,3
0.013254,0.012064,0.015442,0.015534,0.012532,0.013036,3
0.00789,0.008043,0.011505,0.012757,0.007317,0.006911,1
0.009995,0.00957,0.011429,0.012284,0.009867,0.010192,3
0.010002,0.009363,0.011002,0.011398,0.009999,0.010584,3
0.010149,0.009974,0.011597,0.011704,0.010673,0.011285,4
0.011999,0.01132,0.016846,0.018143,0.010511,0.009911,1
0.009694,0.009306,0.011246,0.011704,0.009739,0.010151,3
0.00647,0.006133,0.00708,0.007248,0.006894,0.007548,6
0.007272,0.006598,0.008133,0.008255,0.007979,0.009211,6
0.006661,0.006354,0.007324,0.007736,0.007412,0.008303,6
0.006978,0.0065,0.007935,0.008042,0.007765,0.009038,6
0.007049,0.006595,0.008484,0.008576,0.008302,0.009861,6
0.00698,0.005994,0.008759,0.008759,0.008042,0.009848,6
0.007919,0.008031,0.009705,0.011398,0.007466,0.006932,1
0.007417,0.007869,0.008957,0.015595,0.007759,0.007643,3
0.009893,0.010206,0.011673,0.013382,0.009805,0.009459,3
0.00818,0.008274,0.0103,0.01062,0.008322,0.00836,3
0.009818,0.008861,0.010834,0.010864,0.010308,0.011723,4
0.008165,0.007725,0.008804,0.009049,0.008477,0.009203,4
0.012291,0.010379,0.014267,0.014343,0.011163,0.012275,8
0.009469,0.009575,0.011566,0.012161,0.009268,0.008989,3
0.010769,0.009952,0.012299,0.012985,0.010574,0.011261,4
0.0078,0.007224,0.009201,0.009277,0.008515,0.009677,6
0.007918,0.007338,0.009079,0.009552,0.008207,0.009132,7
0.007092,0.006683,0.007843,0.008331,0.007369,0.00807,7
0.007156,0.006834,0.008042,0.008057,0.007465,0.008141,7
0.006271,0.006072,0.007019,0.007385,0.00657,0.007079,7
0.007494,0.00682,0.00824,0.008392,0.007832,0.009147,6
0.008905,0.008251,0.009735,0.01001,0.008945,0.009603,4
0.007306,0.006707,0.009049,0.009094,0.008021,0.00915,5
0.014067,0.012316,0.015656,0.015686,0.012786,0.013439,8
0.005841,0.00574,0.006241,0.006607,0.005704,0.005676,9
0.005081,0.004986,0.005615,0.005631,0.005026,0.005083,9
0.005196,0.005117,0.00557,0.00557,0.005138,0.005168,9
0.006015,0.005875,0.006699,0.00679,0.006041,0.006173,9
0.006136,0.005815,0.007019,0.007126,0.006495,0.007199,7
0.007557,0.007475,0.008423,0.008484,0.007404,0.007357,3
0.006431,0.005868,0.008057,0.008057,0.006166,0.006517,3
0.007502,0.006863,0.008637,0.008743,0.007883,0.008794,7
0.007059,0.006489,0.008148,0.008331,0.007746,0.00877,6
0.008773,0.008492,0.009888,0.01059,0.01015,0.011584,6
0.008051,0.007341,0.008896,0.008942,0.008065,0.00889,7
0,0,0,0,0,0,10
0,0,0,0,0,0,10
0,0,0,0,0,0,10
0.015378,0.01312,0.022156,0.022583,0.016161,0.018698,8
0.016666,0.013671,0.022065,0.022248,0.015562,0.01763,8
0.010353,0.010089,0.013428,0.014237,0.010178,0.010278,3
0.009585,0.009511,0.011719,0.013153,0.009622,0.009721,3
0.006717,0.007343,0.007858,0.010407,0.006676,0.006121,9
0.006948,0.006422,0.007965,0.008072,0.006861,0.007367,3
0.013139,0.012135,0.018021,0.018021,0.01269,0.013431,8
0.010252,0.009631,0.012863,0.013413,0.010045,0.010561,3
0.009827,0.009111,0.011719,0.012619,0.009796,0.010586,4
0.007517,0.006993,0.008255,0.008392,0.007487,0.008036,3
0.011776,0.011091,0.014618,0.014633,0.011697,0.012357,3
0.012788,0.010894,0.018418,0.018418,0.012013,0.013576,8
0.010267,0.009957,0.01268,0.01268,0.010422,0.010708,3
0.008839,0.008943,0.010773,0.011139,0.008809,0.008672,3
0.009659,0.0089,0.010666,0.012284,0.009489,0.010184,4
0.008964,0.009226,0.0103,0.010956,0.009045,0.008885,3
0.00823,0.00758,0.00914,0.009155,0.008985,0.010275,5
0.014372,0.011555,0.017792,0.017792,0.012704,0.014429,8
0.00939,0.009005,0.011414,0.011414,0.009336,0.00962,3
0.006137,0.006229,0.006989,0.007492,0.006014,0.005784,9
0.008479,0.008698,0.009888,0.010239,0.008426,0.008142,3
0.009533,0.008859,0.010788,0.01088,0.00878,0.008766,3
0.018974,0.01611,0.024323,0.024613,0.017841,0.019648,8
0.010484,0.009409,0.016815,0.017426,0.009978,0.010697,3
0.010492,0.008799,0.014374,0.014374,0.009911,0.011024,3
0.010412,0.009225,0.012284,0.012329,0.009403,0.00968,3
0.006773,0.006334,0.010147,0.010361,0.006165,0.006067,9
0.011426,0.008993,0.014588,0.014588,0.009928,0.011259,3
0.009043,0.00753,0.011704,0.011765,0.008318,0.009109,3
0.007764,0.007352,0.008713,0.0094,0.007705,0.008038,3
0.009597,0.009558,0.010681,0.011612,0.009498,0.009447,3
0.020524,0.017149,0.024903,0.025101,0.01841,0.020201,8
0.005563,0.005511,0.006058,0.006271,0.005463,0.005425,9
0.008762,0.008398,0.009766,0.010193,0.009162,0.00986,4
0.00886,0.008946,0.010544,0.011933,0.008828,0.008715,3
0.009602,0.008746,0.012375,0.012375,0.009335,0.009848,3
0.005708,0.005723,0.006043,0.007019,0.005619,0.005517,9
0.005589,0.005515,0.006043,0.006043,0.005454,0.005406,9
0.005856,0.005823,0.006226,0.006302,0.005692,0.005582,9
0.005678,0.005949,0.006119,0.009216,0.005711,0.005463,9
0.005334,0.005346,0.005554,0.006104,0.005316,0.005283,9
0.007943,0.007418,0.009155,0.009155,0.008186,0.008878,4
0.009249,0.008667,0.010986,0.011536,0.008237,0.0079,3
0.007371,0.007103,0.008515,0.008759,0.006697,0.006392,1
0.009868,0.008783,0.013809,0.014099,0.009021,0.009337,3
0.012508,0.010608,0.01648,0.016983,0.011703,0.013017,3
0.005037,0.005003,0.00528,0.005432,0.005009,0.005017,9
0.015662,0.01258,0.018555,0.018738,0.013815,0.01556,8
0.005112,0.005075,0.005371,0.005417,0.005077,0.005084,9
0.009352,0.00836,0.011322,0.011475,0.008834,0.009323,3
0.010643,0.009498,0.013352,0.013352,0.009884,0.010349,3
0.008047,0.007771,0.009247,0.0094,0.008223,0.008612,4
0.005326,0.005166,0.0056,0.005707,0.005234,0.005328,8
0.005529,0.005684,0.006897,0.009659,0.005461,0.00528,9
0.009267,0.009207,0.010941,0.011963,0.009409,0.009569,4
0.015826,0.012122,0.018677,0.018753,0.013902,0.015863,8
0.01326,0.012569,0.017426,0.017426,0.012336,0.012215,3
0.005727,0.005669,0.005982,0.006119,0.005661,0.005659,9
0.018673,0.015355,0.021775,0.021775,0.016068,0.017289,8
0.010295,0.009989,0.011368,0.011688,0.00966,0.009385,3
0.007943,0.007585,0.009339,0.009491,0.007702,0.007818,3
0.013118,0.009791,0.017853,0.018082,0.011105,0.012784,8
0.009619,0.009218,0.012116,0.012116,0.009066,0.008995,3
0.013811,0.010862,0.016342,0.016342,0.011725,0.013613,8
0.02289,0.01849,0.025452,0.025452,0.01986,0.022081,8
0.005569,0.005468,0.005982,0.006012,0.005427,0.005393,9
0.010774,0.010129,0.01265,0.013001,0.01033,0.010537,3
0.009314,0.00876,0.010437,0.011002,0.008796,0.008869,3
0.01342,0.011258,0.01912,0.019318,0.012575,0.01418,8
0.009457,0.009215,0.010544,0.011734,0.009198,0.0092,3
0.021794,0.016761,0.026932,0.027054,0.018749,0.021559,8
0.013506,0.013669,0.017075,0.019547,0.012916,0.012265,3
0.009438,0.009007,0.010666,0.010956,0.009581,0.0102,4
0.01006,0.009352,0.012055,0.012131,0.009482,0.009666,3
0.009073,0.008429,0.010361,0.010437,0.007923,0.007523,1
0.007821,0.007324,0.008789,0.009049,0.007034,0.006785,1
0.007626,0.007321,0.008865,0.009064,0.007023,0.006757,1
0.007492,0.007467,0.008515,0.008698,0.007825,0.008106,4
0.00981,0.009199,0.011673,0.011673,0.009351,0.009524,3
0.016969,0.010015,0.024277,0.024918,0.014069,0.019826,8
0.006279,0.006334,0.006851,0.008194,0.006099,0.005908,9
0.00768,0.007569,0.008942,0.009094,0.00711,0.006686,1
0.006345,0.006653,0.006989,0.008316,0.006111,0.005584,1
0.008254,0.008479,0.009262,0.010147,0.008022,0.007558,3
0.017571,0.013784,0.021775,0.021988,0.014577,0.016193,8
0.008038,0.008249,0.010163,0.010163,0.007658,0.007073,1
0.006778,0.006228,0.010636,0.010834,0.006849,0.007544,7
0.008054,0.006993,0.009689,0.009689,0.008895,0.011122,6
0.007224,0.006467,0.008988,0.009018,0.008206,0.009992,6
0.006412,0.006102,0.006882,0.006958,0.006531,0.006957,7
0.006463,0.006331,0.007309,0.007385,0.006741,0.007052,7
0.007204,0.006667,0.007813,0.007919,0.008075,0.009284,6
0.007317,0.006876,0.008545,0.008545,0.00812,0.009262,6
0.006533,0.005807,0.007141,0.007263,0.00682,0.008111,7
0.006732,0.006205,0.007919,0.007919,0.007826,0.009296,6
0.00785,0.007275,0.011963,0.011963,0.008706,0.010034,6
0.005822,0.005446,0.006577,0.006577,0.006802,0.007802,5
0.005703,0.005283,0.006561,0.006561,0.006847,0.008247,6
0.005908,0.005396,0.006851,0.006973,0.007151,0.008681,6
0.008465,0.007586,0.009491,0.009598,0.009231,0.010754,6
0.010026,0.01008,0.011109,0.011658,0.00983,0.009615,3
0.006907,0.006887,0.007813,0.008148,0.006833,0.006791,3
0.011619,0.010756,0.013642,0.014252,0.010252,0.009813,1
0.010681,0.011124,0.011887,0.013123,0.010698,0.01032,3
0.007603,0.007309,0.008606,0.008881,0.006846,0.006467,1
0.009512,0.009974,0.012345,0.013794,0.008836,0.007606,1
0.009196,0.009125,0.011597,0.012467,0.008832,0.008575,3
0.025213,0.019939,0.030213,0.030579,0.021463,0.024145,8
0.007616,0.00758,0.008804,0.010208,0.007212,0.006849,1
0.010404,0.010445,0.01265,0.016114,0.010493,0.010529,3
0.008132,0.007304,0.010163,0.010468,0.007357,0.007489,1
0.008482,0.007816,0.009751,0.010132,0.007954,0.008161,3
0,0,0,0,0,0,10
0.008142,0.008263,0.009293,0.010269,0.007655,0.007026,1
0.008174,0.007943,0.00882,0.009247,0.00753,0.007132,1
0.009661,0.00905,0.010819,0.010864,0.009003,0.009012,3
0.008276,0.008216,0.009079,0.009735,0.007604,0.007042,1
0.011345,0.011197,0.01355,0.014374,0.011022,0.010882,3
0.0076,0.00669,0.008804,0.008804,0.008743,0.01072,6
0.006309,0.00557,0.007736,0.008011,0.00707,0.008485,5
0.005372,0.005008,0.005844,0.006226,0.006157,0.007187,7
0.00544,0.005203,0.005814,0.005966,0.005835,0.006401,7
0.006682,0.005956,0.007675,0.007797,0.007828,0.009984,5
0.006854,0.006028,0.007691,0.007935,0.008202,0.010546,6
0.005416,0.00498,0.006287,0.006348,0.005953,0.00689,6
0.006375,0.005742,0.007095,0.007248,0.008704,0.011322,6
0.005568,0.005323,0.006363,0.006409,0.006295,0.007139,7
0.007653,0.006611,0.009628,0.009628,0.009057,0.010912,6
0.00624,0.005743,0.007736,0.007736,0.006211,0.006709,9
0.005996,0.00557,0.007019,0.007187,0.00655,0.007554,7
0.006502,0.005825,0.007492,0.007599,0.007485,0.00886,5
0.006506,0.005879,0.007523,0.007523,0.007333,0.008922,5
0.006044,0.005592,0.006897,0.00708,0.007444,0.008739,6
0.00527,0.004978,0.006012,0.006043,0.006043,0.006955,7
0.00703,0.005557,0.011536,0.011536,0.007134,0.008441,6
0.006681,0.005848,0.008118,0.008331,0.007491,0.009024,5
0.006637,0.005908,0.008301,0.008545,0.007644,0.00917,5
0.006722,0.005916,0.009277,0.009277,0.008616,0.010475,6
0.00719,0.006704,0.008026,0.008026,0.007931,0.009262,5
0.006225,0.005859,0.006912,0.007752,0.007357,0.008803,5
0.00545,0.005134,0.006485,0.006592,0.006382,0.00745,6
0.006902,0.00591,0.007538,0.007584,0.008078,0.010691,5
0.008911,0.00839,0.009812,0.01004,0.009267,0.01016,4
0.00789,0.007471,0.008606,0.008698,0.008085,0.008637,4
0.00749,0.006946,0.008484,0.008499,0.007669,0.008497,4
0.005341,0.005292,0.005737,0.005737,0.005286,0.005286,9
0.008688,0.00855,0.009644,0.01033,0.008774,0.008991,3
0.010268,0.00999,0.01146,0.011978,0.010317,0.010611,3
0.008796,0.008265,0.010773,0.010773,0.008965,0.009521,4
0.008326,0.008191,0.009979,0.01001,0.008213,0.008241,3
0.005217,0.005164,0.005493,0.005798,0.00517,0.005182,9
0.009807,0.008879,0.012512,0.01265,0.008656,0.008517,1
0.005401,0.005338,0.005814,0.005859,0.005322,0.005313,9
0.00822,0.008035,0.009003,0.009003,0.007906,0.007814,3
0.011086,0.010413,0.013916,0.014939,0.010336,0.010323,3
0.008371,0.007672,0.009079,0.009308,0.008671,0.009736,5
0.012356,0.010587,0.015702,0.015717,0.011602,0.012719,3
0.012301,0.011362,0.014054,0.015702,0.011827,0.012268,4
0.008896,0.008686,0.010575,0.012222,0.008589,0.008512,3
0.010112,0.009659,0.011902,0.013642,0.009653,0.009688,3
0.009857,0.009572,0.011948,0.012818,0.009449,0.009358,3
0.00871,0.008527,0.009827,0.010452,0.008849,0.009199,4
0.012498,0.011689,0.015213,0.016129,0.012012,0.012352,4
0.009762,0.009716,0.01181,0.01323,0.009446,0.009251,3
0.008837,0.009115,0.011948,0.014389,0.009,0.008894,4
0.015095,0.012428,0.01651,0.016724,0.013087,0.014243,8
0.009203,0.009257,0.01207,0.013169,0.008975,0.008769,3
0.009136,0.00842,0.011093,0.013336,0.009804,0.011135,3
0.013945,0.012589,0.016205,0.016297,0.012829,0.013305,8
0.011616,0.010945,0.01593,0.01593,0.011016,0.011153,4
0.010685,0.01058,0.013657,0.014527,0.011199,0.011483,4
0.010126,0.009509,0.013489,0.014435,0.010183,0.010873,3
0.010955,0.010379,0.013214,0.013519,0.01042,0.010504,3
0.008823,0.008377,0.009979,0.010163,0.008943,0.009596,4
0.010245,0.009549,0.012467,0.012863,0.010226,0.01086,3
0.012088,0.010679,0.015503,0.015702,0.011341,0.01221,3
0.011038,0.010269,0.012787,0.013672,0.010955,0.011569,4
0.009973,0.00906,0.012024,0.012024,0.009841,0.010604,4
0.009764,0.009269,0.010697,0.011627,0.010024,0.01074,3
0.009134,0.007855,0.011246,0.011627,0.008643,0.009735,7
0.009232,0.008142,0.011276,0.011276,0.009106,0.010197,5
0.00998,0.00957,0.01181,0.012726,0.010121,0.010644,3
0.010448,0.010428,0.012314,0.012955,0.010747,0.010997,3
0.011019,0.010998,0.012238,0.013001,0.011569,0.011925,3
0.011465,0.010668,0.01355,0.014267,0.011984,0.013223,4
0.009983,0.010061,0.01239,0.01326,0.009907,0.009792,3
0.00866,0.007969,0.010407,0.011154,0.008287,0.008659,4
0.010253,0.009499,0.01178,0.01178,0.010358,0.011328,3
0.00915,0.008751,0.009949,0.010727,0.009266,0.009772,4
0.007584,0.007586,0.008438,0.01062,0.007635,0.007681,9
0.011346,0.010263,0.012818,0.013458,0.010692,0.011253,3
0.010354,0.009694,0.011398,0.011978,0.010585,0.011561,4
0.01112,0.010822,0.013809,0.01387,0.010316,0.009969,3
0.011438,0.010574,0.013214,0.013382,0.010897,0.011313,3
0.009334,0.00956,0.010681,0.011551,0.009589,0.009592,3
0.011134,0.009719,0.013413,0.013413,0.011544,0.013906,5
0.011127,0.010523,0.013489,0.01384,0.011043,0.011628,3
0.011196,0.011065,0.013306,0.01355,0.011116,0.011173,3
0.010134,0.009933,0.012619,0.013413,0.009769,0.009675,3
0.012044,0.011458,0.014694,0.016327,0.011647,0.011854,4
0.011434,0.009814,0.013321,0.013474,0.011259,0.013031,4
0.013875,0.012946,0.016129,0.017456,0.012642,0.012475,3
0.011456,0.010846,0.013077,0.013504,0.010619,0.010488,3
0.008371,0.007672,0.009079,0.009308,0.008671,0.009736,5
0.015123,0.013458,0.019348,0.019501,0.013845,0.014345,3
0.009821,0.009568,0.01181,0.012451,0.009398,0.009295,3
0.012775,0.012035,0.016236,0.01828,0.012189,0.012396,3
0.00865,0.008068,0.01062,0.010758,0.008648,0.009256,3
0.012456,0.01196,0.014557,0.014847,0.012108,0.012247,3
0.011577,0.011439,0.012955,0.015259,0.011011,0.010685,3
0.01039,0.009983,0.012497,0.012818,0.00976,0.009629,3
0.009946,0.00962,0.011337,0.012116,0.009949,0.01025,3
0.011649,0.011761,0.014313,0.015839,0.011014,0.010419,3
0.011473,0.011655,0.013382,0.015427,0.011186,0.010788,3
0.010445,0.010157,0.012116,0.013886,0.009928,0.009695,3
0.01351,0.012609,0.015976,0.017136,0.01224,0.012003,3
0.012306,0.010955,0.013687,0.013825,0.011899,0.013012,3
0.011265,0.010859,0.01236,0.013214,0.010873,0.010915,3
0.012431,0.012141,0.014405,0.015824,0.01228,0.01248,3
0.011669,0.010757,0.012924,0.013748,0.011313,0.011855,3
0.013162,0.011528,0.015686,0.015778,0.01205,0.012675,3
0.012269,0.011694,0.013519,0.014328,0.012134,0.012532,3
0.012222,0.010775,0.013916,0.014069,0.01188,0.013004,3
0.011202,0.01084,0.012772,0.01416,0.011136,0.011488,4
0.014033,0.013115,0.016907,0.017655,0.013199,0.013377,3
0.011895,0.011046,0.013184,0.013672,0.011313,0.011627,3
0.012356,0.010587,0.015702,0.015717,0.011602,0.012719,3
0.012301,0.011362,0.014054,0.015702,0.011827,0.012268,4
0.013499,0.012456,0.018341,0.018738,0.012676,0.012912,3
0.012819,0.010957,0.015671,0.01593,0.012119,0.013238,4
0.010079,0.009132,0.013458,0.013977,0.009664,0.010268,3
0.011865,0.010572,0.014099,0.014557,0.010545,0.01065,3
0.01182,0.00941,0.014359,0.014755,0.010558,0.011727,4
0.005903,0.005994,0.006378,0.008392,0.005866,0.005721,9
0.007387,0.007722,0.00827,0.00914,0.007474,0.007185,3
0.007151,0.00676,0.008026,0.008164,0.006738,0.006771,3
0.007101,0.006858,0.007813,0.008164,0.00702,0.007211,3
0.007603,0.007472,0.00853,0.008789,0.007419,0.007385,3
0.007548,0.007105,0.010498,0.010575,0.00762,0.007974,3
0.008078,0.007403,0.010544,0.010575,0.007722,0.008146,7
0.016235,0.013844,0.019806,0.020401,0.014992,0.016269,8
0.007151,0.00676,0.008026,0.008164,0.006738,0.006771,3
0.007653,0.007622,0.008835,0.00911,0.007633,0.007643,3
0.007387,0.007722,0.00827,0.00914,0.007474,0.007185,3
0.008467,0.008376,0.009751,0.010208,0.008257,0.008158,3
0.007789,0.007803,0.008865,0.009934,0.007539,0.007286,3
0.007711,0.007862,0.009262,0.010361,0.007665,0.007512,3
0.007767,0.00801,0.009537,0.010636,0.007745,0.007516,3
0.007869,0.007968,0.008865,0.009598,0.007968,0.007958,3
0.007374,0.007552,0.00798,0.009537,0.007568,0.007567,3
0.00907,0.009091,0.010834,0.011002,0.00896,0.00883,3
0.008121,0.007586,0.009094,0.009094,0.007853,0.008174,3
0.016493,0.013852,0.019532,0.019883,0.014565,0.015833,8
0.007725,0.007816,0.009506,0.009827,0.007765,0.007718,3
0.007107,0.00708,0.007752,0.008652,0.006773,0.006452,3
0.00818,0.00807,0.009277,0.009827,0.008008,0.007955,3
0.008079,0.008178,0.010239,0.010422,0.007937,0.007707,3
0.008387,0.008101,0.010147,0.010925,0.008109,0.008139,3
0.009169,0.008814,0.011078,0.011475,0.008772,0.008764,3
0.006043,0.006102,0.006332,0.006806,0.005903,0.005703,9
0.009524,0.009517,0.011749,0.013062,0.009136,0.008784,3
0.008711,0.008387,0.009598,0.009903,0.008594,0.008836,3
0.009695,0.009288,0.011551,0.012116,0.008964,0.00872,3
0.010193,0.009507,0.012299,0.012299,0.009656,0.009882,3
0.009313,0.008692,0.010544,0.010803,0.008744,0.008834,3
0.00833,0.007683,0.010788,0.011215,0.007968,0.008273,3
0.009957,0.009047,0.012497,0.012863,0.00931,0.009682,3
0.00724,0.006986,0.007904,0.008347,0.007447,0.007936,3
0.005723,0.005684,0.006043,0.00647,0.005624,0.005571,9
0.00732,0.00688,0.008316,0.008667,0.007676,0.008354,3
0.005596,0.005701,0.005966,0.006989,0.005589,0.005481,9
0.008383,0.008379,0.009445,0.00972,0.008399,0.008416,3
0.009732,0.009551,0.010895,0.011292,0.009273,0.00904,3
0.008625,0.008519,0.010697,0.011658,0.008552,0.008588,3
0.010263,0.009314,0.012222,0.013764,0.009567,0.009874,3
0.008716,0.008627,0.009766,0.010376,0.008431,0.008257,3
0.009689,0.009448,0.011017,0.0121,0.009064,0.008764,3
0.009594,0.0093,0.010544,0.011032,0.009011,0.008783,3
0.010725,0.009575,0.011963,0.011994,0.01002,0.010662,4
0.009024,0.00881,0.010132,0.010285,0.008569,0.008372,3
0.009269,0.009254,0.009949,0.010529,0.009339,0.009409,3
0.006347,0.006442,0.00676,0.008545,0.006198,0.005964,9
0.009847,0.009215,0.011627,0.011704,0.009667,0.010233,3
0.01,0.009475,0.01146,0.012207,0.009927,0.010492,3
0.009766,0.009887,0.011002,0.011978,0.009695,0.009498,3
0.008818,0.008673,0.010773,0.011536,0.008646,0.008632,3
0.008527,0.008742,0.010803,0.011322,0.008256,0.007798,3
0.01213,0.011309,0.015686,0.018235,0.01164,0.012034,3
0.008521,0.00872,0.0094,0.01062,0.008646,0.008554,3
0.012776,0.012259,0.015503,0.017411,0.012425,0.01262,3
0.008442,0.008877,0.009293,0.010483,0.008413,0.007957,3
0.006289,0.006196,0.008194,0.008301,0.005893,0.005696,9
0.008645,0.008575,0.010636,0.010636,0.008318,0.008089,3
0.008669,0.009499,0.011322,0.013153,0.009192,0.008884,3
0.00789,0.007531,0.008804,0.009064,0.007697,0.007866,3
0.008441,0.008146,0.009567,0.009903,0.008364,0.008538,3
0.006115,0.005702,0.006973,0.006973,0.006247,0.00676,4
0.006115,0.005702,0.006973,0.006973,0.006247,0.00676,4
0.006743,0.006138,0.007874,0.008103,0.007406,0.008469,6
0.006349,0.006047,0.006897,0.007141,0.00643,0.00675,7
0.006308,0.006244,0.007004,0.00766,0.00606,0.005927,9
0.006618,0.006239,0.007675,0.008011,0.007364,0.008558,6
0.006898,0.006332,0.007645,0.007645,0.007627,0.008868,6
0.006945,0.006181,0.013718,0.01387,0.007224,0.008177,6
0.006349,0.006047,0.006897,0.007141,0.00643,0.00675,7
0.006997,0.00655,0.00798,0.008209,0.007522,0.008514,6
0.009451,0.007702,0.012696,0.012909,0.008601,0.010063,8
0.010185,0.007908,0.01268,0.012711,0.009024,0.010869,8
0.006789,0.006276,0.008026,0.008499,0.007797,0.009115,6
0.006115,0.005702,0.006973,0.006973,0.006247,0.00676,9
0.006675,0.006206,0.007752,0.007965,0.007223,0.008241,6
0.007404,0.007203,0.008469,0.008591,0.007828,0.008194,7
0.008849,0.00813,0.011505,0.011505,0.008718,0.009253,3
0.005586,0.005344,0.006088,0.006104,0.006144,0.006856,7
0.005653,0.005146,0.007019,0.007019,0.005727,0.006406,7
0.006178,0.005869,0.006744,0.006744,0.006767,0.007459,7
0.005614,0.005482,0.006088,0.006271,0.005759,0.005973,7
0.005797,0.005314,0.006973,0.007019,0.005921,0.006565,7
0.005935,0.005697,0.006577,0.006683,0.006333,0.006831,7
0.005702,0.005361,0.006149,0.006302,0.006102,0.006832,7
0.005711,0.005502,0.006256,0.006287,0.006126,0.006729,7
0.005879,0.00574,0.006378,0.006577,0.006433,0.006922,7
0.005881,0.005576,0.006271,0.006302,0.005919,0.006302,9
0.006115,0.005702,0.006973,0.006973,0.006247,0.00676,9
0.005851,0.00558,0.006241,0.006348,0.006207,0.006807,7
0.005146,0.005128,0.005493,0.005905,0.005041,0.004972,9
0.005793,0.005552,0.006302,0.006317,0.006176,0.006734,7
0.005777,0.005525,0.006363,0.00647,0.006134,0.006644,7
0.006743,0.006138,0.007874,0.008103,0.007406,0.008469,6
0.006759,0.006397,0.007752,0.007904,0.007722,0.008566,6
0.007654,0.006473,0.017441,0.017548,0.007971,0.009091,6
0.007259,0.006235,0.014511,0.014511,0.007336,0.008404,6
0.006732,0.006309,0.007843,0.007843,0.007555,0.008466,6
0.006898,0.006332,0.007645,0.007645,0.007627,0.008868,6
0.006945,0.006181,0.013718,0.01387,0.007224,0.008177,6
0.006349,0.006047,0.006897,0.007141,0.00643,0.00675,7
0.006997,0.00655,0.00798,0.008209,0.007522,0.008514,6
0.009451,0.007702,0.012696,0.012909,0.008601,0.010063,8
0.010185,0.007908,0.01268,0.012711,0.009024,0.010869,8
0.006707,0.00646,0.007691,0.007752,0.007555,0.008462,6
0.006789,0.006276,0.008026,0.008499,0.007797,0.009115,6
0.006675,0.006206,0.007752,0.007965,0.007223,0.008241,6
0.006997,0.006307,0.009064,0.00911,0.008212,0.009863,6
0.007861,0.007019,0.00914,0.00914,0.008395,0.010038,6
0.006988,0.006622,0.007904,0.008133,0.007592,0.008508,6
0.006592,0.005931,0.007706,0.007706,0.007161,0.008602,6
0.007229,0.006643,0.008438,0.008621,0.007514,0.008247,6
0.00809,0.007508,0.00911,0.00911,0.008714,0.009679,6
0.006554,0.006343,0.007446,0.007446,0.007669,0.008598,6
0.00834,0.006842,0.01619,0.01619,0.008197,0.00969,6
0.007707,0.006338,0.016037,0.016037,0.00742,0.008668,6
0.0068,0.006189,0.007874,0.008011,0.007578,0.008909,6
0.006689,0.006469,0.007599,0.007599,0.007396,0.008153,6
0.007133,0.006615,0.007736,0.007736,0.008116,0.009678,6
0.006517,0.006133,0.007187,0.007446,0.007059,0.007985,6
0.007139,0.0067,0.00798,0.008209,0.007519,0.008371,6
0.006773,0.006368,0.007401,0.007507,0.00736,0.008268,6
0.006869,0.00645,0.007416,0.007538,0.007942,0.009239,6
0.006518,0.006053,0.007095,0.007218,0.007373,0.00873,6
0.006618,0.006239,0.007675,0.008011,0.007364,0.008558,6
0.009591,0.008474,0.013138,0.013138,0.009703,0.010667,8
0.005948,0.005818,0.006317,0.006531,0.005951,0.006069,9
0.006308,0.006244,0.007004,0.00766,0.00606,0.005927,9
0.006858,0.006434,0.007416,0.007477,0.0073,0.008179,7
0.006684,0.006177,0.007355,0.007401,0.007316,0.008583,6
0.010169,0.008502,0.011322,0.011444,0.00941,0.010592,8
0.007481,0.007438,0.008377,0.00943,0.008164,0.008794,6
0.007404,0.007203,0.008469,0.008591,0.007828,0.008194,7
0.007028,0.00694,0.008133,0.008164,0.007725,0.008331,6
0.008066,0.008316,0.013245,0.01387,0.007029,0.006717,7
0.007146,0.006768,0.008194,0.008194,0.007876,0.009118,6
0.006994,0.006697,0.007797,0.008026,0.007603,0.008345,6
0.006964,0.006428,0.007599,0.007721,0.00778,0.009345,6
0.011784,0.012253,0.013733,0.015152,0.013178,0.013441,4
0.0072,0.006663,0.008316,0.008316,0.007585,0.008732,6
0.006944,0.006617,0.00763,0.007752,0.007487,0.008433,6
0.01012,0.009337,0.013474,0.015,0.010232,0.011077,6
0.006626,0.006071,0.007492,0.007492,0.007154,0.008401,6
0.00702,0.006769,0.007752,0.007752,0.007564,0.008396,7
0.006521,0.006738,0.007355,0.013123,0.006354,0.006094,9
0.007098,0.006492,0.008179,0.008362,0.007595,0.00864,6
0.007431,0.007166,0.008103,0.008118,0.008567,0.00953,6
0.006589,0.006245,0.007248,0.007416,0.006985,0.007782,6
0.006594,0.006147,0.007141,0.007309,0.007378,0.008726,6
0.013005,0.011855,0.017288,0.017288,0.012573,0.013232,3
0.008849,0.00813,0.011505,0.011505,0.008718,0.009253,3
0.00756,0.006856,0.008713,0.008743,0.008037,0.009112,6
0.006927,0.006655,0.007507,0.007584,0.007707,0.008607,6
0.006945,0.006692,0.007965,0.008148,0.007562,0.0083,6
0.006858,0.006346,0.007385,0.007507,0.006741,0.00721,7
0.00682,0.006706,0.007446,0.007446,0.007617,0.008207,6
0.006052,0.005971,0.006683,0.006683,0.006718,0.007326,6
0.009376,0.008001,0.011719,0.012009,0.009,0.010124,4
0.009412,0.008552,0.012726,0.013138,0.009757,0.010578,6
0.006928,0.006851,0.007767,0.012604,0.007617,0.008167,6
0.010745,0.009453,0.011963,0.011963,0.01013,0.010878,8
0.006205,0.00582,0.006683,0.00676,0.006896,0.007821,6
0.006521,0.006073,0.007172,0.007309,0.007173,0.00832,6
0.006623,0.006397,0.007111,0.00766,0.007081,0.007699,7
0.006382,0.006141,0.006943,0.006943,0.00707,0.007807,6
0.007518,0.007125,0.009445,0.010178,0.008577,0.009685,6
0.006519,0.006082,0.00705,0.007218,0.007627,0.009019,6
0.007818,0.006899,0.011505,0.011505,0.0079,0.008655,6
0.006479,0.006141,0.00705,0.00705,0.006929,0.007766,7
0.006198,0.005866,0.006912,0.006989,0.006789,0.007581,7
0.006675,0.006241,0.007401,0.007401,0.007404,0.008659,6
0.00604,0.005673,0.006531,0.006531,0.00634,0.006991,7
0.007142,0.006657,0.008026,0.008133,0.008614,0.009891,6
0.006337,0.006062,0.00708,0.00708,0.006458,0.006866,7
0.007006,0.006448,0.008286,0.008286,0.007971,0.009326,6
0.006202,0.005948,0.007141,0.007141,0.007121,0.0081,6
0.00644,0.006053,0.007034,0.007095,0.007065,0.007934,6
0.006555,0.006206,0.007263,0.00737,0.007108,0.00808,6
0.006843,0.006513,0.007752,0.007752,0.007981,0.009168,6
0.006165,0.005567,0.006561,0.006668,0.006775,0.008119,6
0.006156,0.005819,0.006897,0.006912,0.006543,0.007191,7
0.006252,0.00605,0.006851,0.006851,0.006944,0.007498,6
0.008028,0.008002,0.009812,0.010544,0.007551,0.007163,1
0.007173,0.00787,0.009094,0.015808,0.00723,0.006554,1
0.013165,0.013773,0.01619,0.018418,0.011936,0.010385,1
0.008144,0.007772,0.008972,0.009201,0.007467,0.007204,1
0.016521,0.013628,0.01915,0.01915,0.014746,0.016456,8
0.011383,0.010417,0.013336,0.013336,0.01045,0.010596,8
0.00894,0.009106,0.010117,0.010559,0.008675,0.008252,3
0.009088,0.008629,0.010758,0.011093,0.008148,0.007766,1
0.011351,0.01058,0.014099,0.015137,0.010497,0.010489,3
0.009442,0.00855,0.012818,0.013916,0.009133,0.009826,3
0.011054,0.010472,0.012573,0.013046,0.010156,0.009931,3
0.007783,0.007141,0.009171,0.009354,0.006945,0.006811,1
0.011636,0.009661,0.014511,0.015076,0.010295,0.01121,3
0.007551,0.007319,0.008484,0.008698,0.007955,0.008526,4
0.007551,0.007319,0.008484,0.008698,0.007955,0.008526,4
0.008914,0.008789,0.009903,0.011002,0.008917,0.009047,3
0.008276,0.007885,0.01033,0.010361,0.007997,0.008134,3
0.012003,0.012373,0.015534,0.016541,0.011869,0.01143,3
0.008607,0.008527,0.011673,0.012116,0.00872,0.008874,3
0.013228,0.011596,0.017044,0.019776,0.012266,0.013182,3
0.012003,0.012373,0.015534,0.016541,0.011869,0.01143,3
0.006645,0.006727,0.00766,0.008469,0.006379,0.00612,1
0.007745,0.007284,0.009903,0.010208,0.008364,0.009277,7
0.007692,0.007128,0.010117,0.01033,0.008181,0.008981,7
0.009218,0.009006,0.011093,0.012268,0.008804,0.008633,3
0.010448,0.009671,0.012253,0.012253,0.009402,0.009206,3
0.005977,0.005622,0.006714,0.006836,0.006668,0.007639,6
0.007535,0.007117,0.008331,0.008438,0.008256,0.009263,6
0.010499,0.00856,0.013245,0.013245,0.009175,0.010415,8
0.006015,0.005733,0.00647,0.00647,0.006674,0.007535,6
0.00566,0.005637,0.006409,0.006409,0.005511,0.005385,9
0.006907,0.006499,0.007599,0.007843,0.0077,0.008762,6
0.006663,0.006125,0.008087,0.008133,0.007243,0.008386,6
0.011073,0.010734,0.011963,0.013275,0.011709,0.012563,3
0.011073,0.010734,0.011963,0.013275,0.011709,0.012563,3
0.007808,0.007318,0.008698,0.009003,0.007583,0.007905,3
0.008784,0.008161,0.009583,0.009628,0.008201,0.008308,3
0.009644,0.009262,0.010254,0.01062,0.009251,0.009274,3
0.008639,0.0091,0.010437,0.014237,0.008189,0.007352,1
0.00641,0.00564,0.00737,0.007828,0.007573,0.009458,5
0.006495,0.005793,0.00763,0.007889,0.007245,0.008932,6
0.007189,0.006127,0.008118,0.008179,0.008125,0.009754,5
0.006722,0.006157,0.007431,0.00766,0.007323,0.00825,6
0.006055,0.005788,0.006851,0.007004,0.007177,0.008016,6
0.006803,0.006128,0.007538,0.007889,0.007774,0.00955,6
0.006958,0.006144,0.008209,0.008301,0.008672,0.011014,6
0.006264,0.005846,0.007263,0.007568,0.006586,0.007266,7
0.00704,0.006243,0.007691,0.008026,0.008924,0.011327,6
0.008779,0.009307,0.009934,0.013993,0.008323,0.007549,1
0.011544,0.011273,0.012512,0.013703,0.011718,0.012162,3
0.00783,0.007805,0.008789,0.00911,0.007562,0.00736,3
0.00937,0.00876,0.011093,0.011368,0.00854,0.008409,3
0.010093,0.009688,0.011063,0.011551,0.009816,0.009972,3
0.020262,0.016027,0.02388,0.02388,0.018782,0.021171,8
0.008889,0.008293,0.009934,0.01004,0.009015,0.009709,4
0.007454,0.006946,0.008392,0.00856,0.008545,0.009933,6
0.007558,0.006411,0.008377,0.00856,0.007965,0.00982,6
0.007663,0.006989,0.008499,0.008652,0.009219,0.011448,6
0.010527,0.009035,0.013428,0.013703,0.009922,0.011101,4
0.005995,0.005712,0.006668,0.006668,0.006581,0.0073,6
0.007558,0.006411,0.008377,0.00856,0.007965,0.00982,6
0.009977,0.009108,0.013169,0.013993,0.010315,0.011342,4
0.008268,0.008017,0.009476,0.010346,0.008307,0.008556,3
0.010989,0.009699,0.013275,0.013748,0.011048,0.012497,4
0.010843,0.009337,0.01265,0.012802,0.010576,0.011993,4
0.009957,0.009857,0.011643,0.011902,0.01014,0.010433,3
0.00887,0.008607,0.010254,0.011582,0.008275,0.007946,1
0.015341,0.012161,0.020371,0.020371,0.013525,0.015399,8
0.010894,0.009549,0.01355,0.013764,0.009457,0.00949,1
0.00727,0.006873,0.007965,0.008225,0.008158,0.009316,6
0.006852,0.006586,0.007538,0.007767,0.007314,0.00789,7
0.006506,0.005905,0.007126,0.007156,0.006562,0.007449,6
0.006127,0.005641,0.006699,0.006806,0.006207,0.006884,7
0.008909,0.008873,0.009644,0.010727,0.009186,0.009466,3
0.013469,0.012907,0.016052,0.017884,0.011999,0.011157,1
0.004922,0.004896,0.005203,0.00528,0.0049,0.004906,9
0.00527,0.005247,0.005554,0.006088,0.005243,0.00524,9
0.008352,0.007459,0.009705,0.009705,0.009327,0.011062,6
0.009178,0.008556,0.010483,0.010864,0.00886,0.009145,3
0.012063,0.011916,0.014862,0.01561,0.011208,0.010506,3
0.010769,0.010785,0.012177,0.014801,0.01011,0.009457,3
0.027529,0.023397,0.032853,0.033417,0.024192,0.025697,8
0.005619,0.005385,0.005982,0.006088,0.005991,0.00662,3
0.005619,0.005385,0.005982,0.006088,0.005991,0.00662,7
0.005917,0.005651,0.00647,0.00647,0.006392,0.007163,7
0.005825,0.005638,0.00618,0.006271,0.006148,0.006665,7
0.005825,0.005575,0.00618,0.006226,0.006318,0.007056,7
0.006116,0.005543,0.00708,0.00708,0.006674,0.007883,6
0.005798,0.005609,0.006332,0.006439,0.006065,0.00643,7
0.005933,0.005708,0.006439,0.006851,0.006233,0.006647,7
0.007209,0.005928,0.008103,0.00824,0.007455,0.009663,6
0.006684,0.005915,0.008072,0.008392,0.007123,0.008727,6
0.007228,0.006381,0.009781,0.009781,0.008138,0.009192,6
0.005803,0.005441,0.006256,0.006256,0.006049,0.006709,7
0.00601,0.005507,0.006821,0.006973,0.006155,0.006794,7
0.008538,0.008601,0.009613,0.01088,0.008443,0.008283,3
0.009597,0.009572,0.011078,0.012634,0.009382,0.009229,3