%
@relation WildDetailed500_Standardized.arff

@attribute feature1 REAL
@attribute feature2 REAL
@attribute feature3 REAL
@attribute feature4 REAL
@attribute feature5 REAL
@attribute feature6 REAL
@attribute feature7 REAL
@attribute feature8 REAL
@attribute feature9 REAL
@attribute feature10 REAL
@attribute feature11 REAL
@attribute feature12 REAL
@attribute feature13 REAL
@attribute feature14 REAL
@attribute feature15 REAL
@attribute feature16 REAL
@attribute feature17 REAL
@attribute feature18 REAL
@attribute feature19 REAL
@attribute feature20 REAL
@attribute feature21 REAL
@attribute feature22 REAL
@attribute feature23 REAL
@attribute feature24 REAL
@attribute feature25 REAL
@attribute class {1,2,3,4,5,6,7,8,9,10}

@data
0,0,0,0,0,0,0,0,0,0,0,0,0,0,0,0,0,0,0,0,0,1,0,0,0,10
0.46804,0.19935,0.43771,0.23411,0.38482,0.088398,0.85188,0.1709,0.46796,0.1457,0.083158,0.3029,0.8524,0.55527,0.73663,0.5322,0.49491,0.91164,0.89303,0.4252,0.69691,0.51994,0.89457,0.14352,0.094189,1
0.46403,0.28023,0.44347,0.25924,0.32504,0.052735,0.8237,0.12011,0.42958,0.094314,0.062228,0.46983,0.79325,0.59072,0.64959,0.52694,0.56884,0.93051,0.96918,0.56614,0.80307,0.65287,0.81978,0.31937,0.078199,3
0.47814,0.19173,0.49845,0.22376,0.35433,0.076655,0.82876,0.14207,0.44811,0.124,0.083192,0.29928,0.82493,0.46796,0.70647,0.6818,0.41883,0.90118,0.89304,0.36561,0.67523,0.58341,0.85424,0.079932,0.094064,4
0.53642,0.4047,0.55689,0.4126,0.40769,0.11232,0.86729,0.16472,0.49928,0.16945,0.11468,0.17257,0.91861,0.4254,0.79499,0.80771,0.45094,0.89893,0.81427,0.2464,0.54472,0.35863,0.95313,0.090967,0.077323,4
0.60124,0.30405,0.52913,0.42221,0.40789,0.099598,0.89571,0.26424,0.52047,0.16179,0.14386,0.23195,0.91825,0.56043,0.75791,0.39963,0.44862,0.82745,0.7496,0.31761,0.62273,0.40839,0.923,0.24979,0.055582,3
0.19167,0.012156,0.18799,0.014043,0.35894,0.071871,0.82803,0.14413,0.45404,0.12617,0.092505,0.68437,0.18357,0.26499,0.57122,0.59969,0.16251,0.7302,0.88517,0.72967,0.89716,0.97036,0.25999,0.03954,0.025493,9
0.25365,0.056402,0.23947,0.075018,0.33052,0.0934,0.81069,0.048044,0.43582,0.11658,0.09951,0.26907,0.90779,0.68181,0.73105,0.5148,0.62745,0.89662,0.86975,0.34937,0.65522,0.48535,0.90594,0.030224,0.018819,1
0.41561,0.33598,0.43407,0.32871,0.42554,0.15668,0.87837,0.17021,0.49918,0.19377,0.17449,0.15471,0.83529,0.24946,0.81615,0.56065,0.23233,0.76434,0.70153,0.23402,0.5243,0.47306,0.85999,0.072394,0.069305,2
0.82587,0.57391,0.69283,0.73725,0.44908,0.13254,0.87452,0.19423,0.54729,0.20792,0.1862,0.24087,0.93466,0.68761,0.78363,0.4125,0.56321,0.81416,0.74801,0.37301,0.64319,0.39314,0.9245,0.21864,0.12978,1
0.21506,0.09222,0.20497,0.08204,0.3001,0.036969,0.81286,0.11187,0.4042,0.072163,0.15033,0.32027,0.56901,0.24282,0.69936,0.44115,0.17694,0.70007,0.75,0.3926,0.69712,0.80487,0.59648,0.010491,0.10003,9
0.33695,0.14489,0.35914,0.19808,0.38175,0.087311,0.84827,0.13452,0.47902,0.1441,0.11477,0.1829,0.90636,0.43827,0.78956,0.66869,0.43888,0.89452,0.82301,0.26108,0.56148,0.40067,0.93409,0.09273,0.1199,6
0.56392,0.54149,0.64525,0.68736,0.5348,0.2989,0.89017,0.22512,0.58342,0.33135,0.072806,0.22733,0.94414,0.67893,0.76104,0.71031,0.71953,0.98376,0.90125,0.31291,0.61157,0.33781,0.97747,0.081651,0.48259,8
0.2189,0.015883,0.215,0.016999,0.39452,0.099272,0.85092,0.14756,0.48117,0.15689,0.078439,0.82039,0.15361,0.30309,0.53582,0.73865,0.1831,0.75566,0.93388,0.83991,0.94217,0.98152,0.21133,0.040862,0.030448,9
0,0,0,0,0,0,0,0,0,0,0,0,0,0,0,0,0,0,0,0,0,1,0,0,0,10
0.40624,0.22723,0.39918,0.21785,0.37492,0.08144,0.81792,0.12629,0.47062,0.14307,0.067544,0.32873,0.87601,0.65265,0.70227,0.60464,0.62921,0.96209,0.95213,0.41425,0.70712,0.52188,0.90396,0.052543,0.084013,3
0.22534,0.031118,0.22036,0.030488,0.3655,0.09938,0.81671,0.11599,0.4477,0.1409,0.11332,0.40821,0.46494,0.22819,0.64609,0.58509,0.1773,0.72889,0.81099,0.44722,0.74702,0.86869,0.50957,0.027447,0.02901,9
0.30459,0.15462,0.31312,0.17406,0.61739,0.50169,0.8685,0.19286,0.58076,0.45124,0.10051,0.26416,0.8271,0.42839,0.72678,0.86294,0.33918,0.85834,0.82412,0.3325,0.64412,0.55971,0.86123,0.16947,0.015036,8
0.44329,0.15446,0.41394,0.16999,0.33587,0.053387,0.83526,0.1256,0.44258,0.10025,0.073934,0.39465,0.82201,0.60076,0.67161,0.58325,0.55781,0.93077,0.9485,0.47825,0.74987,0.61723,0.8404,0.014385,0.20852,3
0.73652,0.93485,0.78199,0.92572,0.48064,0.25313,0.85453,0.1709,0.52047,0.27312,0.081107,0.4546,0.77476,0.43057,0.64761,0.65501,0.45111,0.87425,0.90433,0.53361,0.78566,0.64111,0.81463,0.36303,0.42488,8
0.35701,0.11572,0.34029,0.13932,0.32792,0.043384,0.85621,0.16472,0.43961,0.087691,0.11755,0.26776,0.91067,0.67576,0.73963,0.5459,0.66016,0.89757,0.86881,0.36088,0.65893,0.48258,0.90627,0.14771,0.050361,3
0.37396,0.24133,0.34974,0.22949,0.33106,0.053822,0.87885,0.25601,0.43992,0.091117,0.13164,0.30482,0.83569,0.51863,0.76096,0.45125,0.40009,0.84637,0.80637,0.46925,0.69178,0.52449,0.87386,0.037468,0.11842,1
0.19032,0.029335,0.19114,0.036031,0.41077,0.24725,0.80154,0.097461,0.46694,0.23715,0.081462,0.45824,0.57974,0.30634,0.62256,0.67032,0.26668,0.82453,0.89885,0.48135,0.77408,0.8143,0.62457,0.044947,0.048485,9
0.22985,0.07731,0.27405,0.29398,0.37733,0.080678,0.81479,0.14688,0.46141,0.14547,0.092112,0.34404,0.89603,0.79965,0.69948,0.5513,0.75768,0.94058,0.9008,0.43805,0.72424,0.46768,0.92354,0.11658,0.2303,7
0.2784,0.12755,0.25716,0.13415,0.36035,0.065239,0.85405,0.1606,0.46274,0.12,0.15076,0.26699,0.82404,0.44418,0.7546,0.40246,0.3566,0.78845,0.76539,0.38319,0.66498,0.59026,0.81051,0.074187,0.095939,1
0.38167,0.25543,0.41363,0.30968,0.66593,0.59954,0.86826,0.18806,0.67472,0.56805,0.13406,0.17964,0.92949,0.50421,0.78546,0.93467,0.41497,0.85861,0.75506,0.24895,0.54964,0.34074,0.9503,0.14239,0.030229,8
0.46921,0.40891,0.43221,0.36253,0.30772,0.056975,0.80949,0.085106,0.41392,0.084951,0.11764,0.33245,0.80677,0.36077,0.71065,0.4285,0.40012,0.83858,0.82944,0.43692,0.71795,0.60235,0.82709,0.23345,0.15507,3
0.3942,0.17423,0.40897,0.19161,0.37492,0.078613,0.86344,0.16404,0.47359,0.13359,0.11434,0.18857,0.8589,0.34255,0.77326,0.82956,0.32696,0.85491,0.79924,0.25109,0.55507,0.48051,0.88728,0.061653,0.095486,2
0.50194,0.2778,0.49441,0.26423,0.36209,0.087202,0.82731,0.13933,0.45548,0.13393,0.071018,0.34579,0.8604,0.56594,0.67939,0.62488,0.57333,0.93393,0.93079,0.40229,0.70981,0.5546,0.88194,0.085721,0.18675,3
0.45096,0.43501,0.48147,0.39671,0.4,0.15472,0.85284,0.14139,0.50389,0.18691,0.15259,0.19591,0.77957,0.22946,0.78689,0.86521,0.22181,0.76921,0.72321,0.28464,0.58271,0.5588,0.81751,0.14474,0.51777,3
0.23517,0.084441,0.27082,0.27291,0.40107,0.15396,0.84032,0.13795,0.47451,0.18292,0.12123,0.20769,0.91927,0.5726,0.7756,0.49029,0.55204,0.89032,0.81062,0.29366,0.5965,0.38206,0.94057,0.17279,0.10871,6
0.22376,0.039708,0.25384,0.18477,0.41525,0.12863,0.82514,0.13384,0.48792,0.18737,0.077998,0.34896,0.905,0.87669,0.67266,0.84251,0.81699,0.96367,0.93543,0.39468,0.70635,0.4641,0.93145,0.087484,0.093141,5
0.58276,0.14214,0.5928,0.24002,0.44019,0.11634,0.85983,0.17433,0.53265,0.19742,0.11987,0.25638,0.90328,0.61341,0.75168,0.57121,0.60146,0.87929,0.84804,0.35738,0.65049,0.48323,0.89927,0.15488,0.044844,4
0.45704,0.25024,0.46036,0.24279,0.46306,0.1457,0.87259,0.16472,0.54708,0.22174,0.14534,0.22822,0.83214,0.36724,0.77473,0.53817,0.3379,0.81639,0.78301,0.33455,0.627,0.53845,0.84786,0.052191,0.17554,3
0.33772,0.15721,0.34663,0.18126,0.39659,0.093509,0.83526,0.14139,0.48178,0.15985,0.20636,0.24149,0.85013,0.43313,0.77341,0.54982,0.3928,0.7971,0.74613,0.35978,0.63847,0.51783,0.85767,0.12735,0.15063,4
0.47814,0.27812,0.45101,0.2646,0.34938,0.073176,0.8461,0.11874,0.4478,0.11452,0.12798,0.20535,0.79585,0.28517,0.77528,0.48634,0.25484,0.80231,0.76615,0.28841,0.59235,0.56096,0.82916,0.18493,0.056644,3
0.27015,0.10713,0.38694,0.76386,0.423,0.11004,0.84778,0.16815,0.49867,0.18303,0.10006,0.252,0.92011,0.70149,0.73041,0.5164,0.67295,0.92498,0.86196,0.31454,0.62913,0.40291,0.94305,0.59006,0.69288,6
0,0,0,0,0,0,0,0,0,0,0,0,0,0,0,0,0,0,0,0,0,1,0,0,0,10
0.25798,0.080551,0.30247,0.29379,0.46219,0.21148,0.85814,0.13795,0.54749,0.25268,0.14664,0.17666,0.94182,0.59426,0.82638,0.54597,0.58508,0.88614,0.79375,0.29248,0.5671,0.27184,0.97755,0.053675,0.3117,6
0.19099,0.011507,0.18684,0.013673,0.29883,0.046646,0.80564,0.091283,0.4088,0.07536,0.097453,0.61521,0.16683,0.23231,0.58067,0.56126,0.14131,0.70445,0.85206,0.64093,0.8619,0.97767,0.22195,0.034926,0.012864,9
0.50978,0.17245,0.55972,0.31911,0.37151,0.057301,0.86055,0.19423,0.49529,0.12274,0.15421,0.1615,0.91422,0.41792,0.81459,0.607,0.41382,0.85645,0.775,0.24668,0.53802,0.37072,0.93293,0.26316,0.23782,6
0.55161,0.38379,0.51831,0.3605,0.46713,0.12569,0.86464,0.21414,0.54186,0.22003,0.078809,0.35253,0.78053,0.44084,0.70338,0.61698,0.40977,0.89957,0.91918,0.46188,0.73066,0.63344,0.82014,0.064798,0.19418,3
0.25717,0.091572,0.24612,0.079268,0.4676,0.13385,0.89114,0.21139,0.56213,0.21809,0.13779,0.371,0.39342,0.19678,0.66963,0.49496,0.13649,0.67554,0.75733,0.42942,0.72944,0.90188,0.43187,0.026742,0.050158,9
0.26961,0.1034,0.30478,0.24612,0.52377,0.19202,0.91883,0.23816,0.62528,0.27826,0.17928,0.17382,0.93137,0.53468,0.80648,0.56264,0.50516,0.84336,0.75529,0.26318,0.55767,0.36277,0.93933,0.10394,0.15071,4
0.44135,0.17909,0.47748,0.29989,0.48211,0.16212,0.88704,0.2162,0.53951,0.23601,0.082302,0.32156,0.87896,0.66375,0.72181,0.6859,0.63197,0.93775,0.91834,0.43714,0.7011,0.51791,0.90049,0.25907,0.14142,4
0,0,0,0,0,0,0,0,0,0,0,0,0,0,0,0,0,0,0,0,0,1,0,0,0,10
0.31108,0.22869,0.43562,0.65355,0.36483,0.11112,0.80491,0.085106,0.46356,0.14981,0.074873,0.24771,0.93903,0.79073,0.73864,0.78919,0.79862,0.97188,0.90375,0.31938,0.63022,0.35771,0.96917,0.1885,0.063397,5
0.38293,0.20113,0.36153,0.19438,0.34537,0.058606,0.84441,0.1407,0.44974,0.10767,0.082908,0.327,0.82911,0.53112,0.7127,0.53968,0.44852,0.9038,0.89385,0.4301,0.71349,0.56833,0.86858,0.15453,0.15335,3
0,0,0,0,0,0,0,0,0,0,0,0,0,0,0,0,0,0,0,0,0,1,0,0,0,10
0.4313,0.24003,0.43283,0.23189,0.53086,0.23464,0.88415,0.21345,0.55455,0.29253,0.08621,0.36064,0.76436,0.45822,0.68135,0.53556,0.37984,0.87285,0.88715,0.43393,0.72752,0.65954,0.79536,0.028608,0.11965,1
0.45262,0.39384,0.52554,0.51146,0.3889,0.092639,0.88487,0.18051,0.487,0.14467,0.13157,0.18129,0.87636,0.38389,0.78283,0.91149,0.33203,0.839,0.76736,0.24891,0.55051,0.4396,0.90591,0.1165,0.19332,2
0.53029,0.46969,0.55436,0.44605,0.40274,0.12178,0.8461,0.15237,0.49877,0.17458,0.13788,0.20085,0.9329,0.58002,0.79675,0.97813,0.50426,0.85986,0.77887,0.30789,0.59449,0.36089,0.94652,0.16974,0.085826,2
0.27466,0.15867,0.33466,0.37639,0.45048,0.18745,0.842,0.13246,0.51883,0.23316,0.059778,0.40634,0.85807,0.73568,0.63043,0.82034,0.70104,0.96174,0.96042,0.4082,0.72479,0.51775,0.90897,0.2357,0.11721,5
0.4528,0.28606,0.47921,0.30192,0.34751,0.064912,0.82611,0.13384,0.44381,0.11521,0.11999,0.21284,0.87622,0.41647,0.78003,0.59872,0.40987,0.87335,0.82137,0.31039,0.60801,0.45106,0.90905,0.1591,0.2155,4
0.28719,0.14959,0.38982,0.62657,0.42193,0.12613,0.85525,0.16678,0.49263,0.18463,0.10553,0.25143,0.89333,0.57334,0.74349,0.59303,0.54509,0.92116,0.86882,0.33452,0.64114,0.43203,0.93199,0.1313,0.46258,6
0.48905,0.60486,0.54908,0.71101,0.70893,0.6675,0.8762,0.21894,0.66008,0.59888,0.08926,0.39428,0.90452,0.79937,0.65153,0.48147,0.65955,0.9023,0.87016,0.43357,0.73787,0.49956,0.91077,0.20563,0.054331,8
0.277,0.12853,0.33214,0.3847,0.50832,0.18082,0.91257,0.21071,0.58823,0.26102,0.12391,0.21014,0.92723,0.62295,0.7774,0.51282,0.59547,0.89875,0.82032,0.30119,0.59983,0.38165,0.94386,0.1245,0.18971,6
0.26429,0.019611,0.2584,0.022173,0.51073,0.19289,0.90968,0.19629,0.59642,0.26867,0.086791,0.67782,0.16486,0.25584,0.56324,0.56881,0.15512,0.72416,0.88344,0.69398,0.88928,0.98294,0.19781,0.027374,0.02604,9
0,0,0,0,0,0,0,0,0,0,0,0,0,0,0,0,0,0,0,0,0,1,0,0,0,10
0.74301,0.59352,0.76133,0.54047,0.51494,0.20257,0.94099,0.31778,0.62559,0.27586,0.12152,0.15352,0.92291,0.44703,0.82176,0.75957,0.41462,0.88275,0.79327,0.23781,0.52699,0.34203,0.95441,0.18835,0.30603,8
0.48066,0.32091,0.46493,0.28843,0.35145,0.067522,0.83887,0.14001,0.45476,0.11681,0.10784,0.23335,0.85863,0.41206,0.75234,0.62759,0.36011,0.85806,0.80966,0.31203,0.61903,0.49987,0.88624,0.063328,0.10635,3
0.22435,0.030956,0.21327,0.042498,0.43042,0.12917,0.87572,0.1558,0.53388,0.1916,0.11275,0.41598,0.64995,0.37983,0.65737,0.54695,0.29415,0.79033,0.85077,0.48605,0.76501,0.78271,0.65364,0.058112,0.065007,9
0.381,0.21815,0.36996,0.19364,0.35513,0.080135,0.83839,0.12217,0.4608,0.12377,0.088298,0.41773,0.78132,0.54076,0.66767,0.50853,0.48572,0.8877,0.91527,0.51145,0.77292,0.65861,0.79972,0.17849,0.039623,3
0.31753,0.027553,0.31316,0.030303,0.27141,0.0067413,0.967,0.04324,0.41238,0.0076501,0.061359,0.80808,0.29786,0.35468,0.53326,0.74127,0.24157,0.80542,0.97114,0.80843,0.93774,0.95111,0.34647,0.023171,0.078105,10
0.2908,0.29562,0.44706,1,0.36215,0.10558,0.82563,0.14001,0.44811,0.14033,0.091279,0.29261,0.87801,0.577,0.71687,0.5396,0.57129,0.91835,0.8858,0.3711,0.67681,0.48615,0.90947,0.14984,1,6
0.68067,1,0.68724,0.93699,0.46506,0.16788,0.86994,0.19218,0.52282,0.22859,0.20571,0.14014,0.90646,0.31426,0.85335,0.7151,0.31071,0.78889,0.69587,0.24164,0.51256,0.29893,0.94197,0.39003,0.36624,8
0.21191,0.017342,0.21034,0.019771,0.38027,0.094922,0.82225,0.11805,0.47523,0.15095,0.067099,0.79013,0.24401,0.32937,0.53363,0.7089,0.21119,0.78185,0.94459,0.78022,0.92867,0.96895,0.27464,0.039613,0.012989,9
0.43897,0.29935,0.47637,0.35606,0.42454,0.15135,0.86272,0.14345,0.51771,0.19856,0.10404,0.17354,0.94714,0.59025,0.80375,0.71538,0.5496,0.9245,0.82882,0.25928,0.55529,0.31792,0.97269,0.025581,0.04314,4
0,0,0,0,0,0,0,0,0,0,0,0,0,0,0,0,0,0,0,0,0,1,0,0,0,10
0.23328,0.11572,0.31059,0.48152,0.3889,0.13048,0.78685,0.10364,0.46377,0.17698,0.063264,0.26902,0.95199,1,0.70971,0.62054,1,0.99387,0.94401,0.31272,0.63142,0.38237,0.96803,0.19166,0.10289,6
0.63861,0.27569,0.56349,0.37546,0.49569,0.13015,0.921,0.23542,0.59191,0.23247,0.21797,0.20233,0.83191,0.33538,0.8185,0.33026,0.24766,0.70811,0.65698,0.338,0.59557,0.52545,0.82839,0.02395,0.054831,1
0.28539,0.18266,0.2635,0.16722,0.53795,0.17701,0.92702,0.2766,0.61883,0.28054,0.20812,0.25287,0.55413,0.1643,0.73966,0.3979,0.13759,0.64626,0.67434,0.33138,0.6381,0.81036,0.55576,0.032884,0.07326,9
0.38604,0.24652,0.43061,0.32927,0.4127,0.14189,0.8396,0.13246,0.49621,0.18908,0.11685,0.16,0.90711,0.35235,0.80223,0.81892,0.37353,0.87852,0.78879,0.22888,0.52175,0.38215,0.93747,0.064283,0.018288,2
0.28881,0.11831,0.33728,0.29749,0.42461,0.14646,0.82346,0.1208,0.50358,0.20256,0.080558,0.18571,0.95394,0.71902,0.77509,0.74596,0.68145,0.96453,0.87171,0.24769,0.55065,0.32424,0.97671,0.030738,0.16352,5
0.51438,0.26888,0.51339,0.27679,0.39525,0.099272,0.87259,0.17159,0.49335,0.15449,0.081764,0.25434,0.88679,0.55024,0.73712,0.7473,0.51784,0.93438,0.89138,0.33011,0.64005,0.4578,0.9255,0.1922,0.2272,3
0,0,0,0,0,0,0,0,0,0,0,0,0,0,0,0,0,0,0,0,0,1,0,0,0,10
0.18378,0.012966,0.18068,0.014043,0.35466,0.081005,0.81912,0.11942,0.44985,0.12754,0.1025,0.54648,0.22126,0.21777,0.60302,0.5599,0.13951,0.70344,0.83329,0.5857,0.82972,0.96565,0.27122,0.042567,0.0038451,9
0,0,0,0,0,0,0,0,0,0,0,0,0,0,0,0,0,0,0,0,0,1,0,0,0,10
0.44478,0.18136,0.41651,0.20713,0.32123,0.049364,0.84249,0.15854,0.43347,0.08712,0.11445,0.20169,0.90148,0.47517,0.78377,0.43454,0.43949,0.8609,0.80093,0.29245,0.59208,0.43241,0.91701,0.11283,0.067867,3
0,0,0,0,0,0,0,0,0,0,0,0,0,0,0,0,0,0,0,0,0,1,0,0,0,10
0.54751,0.57585,0.52838,0.51238,0.39987,0.12287,0.86464,0.15511,0.48393,0.16625,0.096233,0.33731,0.77376,0.36818,0.69796,0.58692,0.37235,0.8681,0.87688,0.42275,0.71433,0.62996,0.81638,0.11913,0.22988,3
0.33299,0.13614,0.40591,0.44956,0.60829,0.26204,0.89595,0.22855,0.64749,0.36652,0.060484,0.25483,0.9404,0.8546,0.69938,0.67588,0.82363,0.99446,0.94048,0.26693,0.58514,0.38579,0.96766,0.087881,0.040967,5
0.37315,0.18136,0.37098,0.17295,0.42762,0.098619,0.8526,0.17982,0.52262,0.18315,0.077764,0.23547,0.90664,0.58069,0.74753,0.72468,0.56455,0.95218,0.90421,0.3089,0.61839,0.43398,0.93799,0.054218,0.029432,3
0,0,0,0,0,0,0,0,0,0,0,0,0,0,0,0,0,0,0,0,0,1,0,0,0,10
0.34858,0.16483,0.36765,0.19937,0.38228,0.093509,0.84393,0.14207,0.47226,0.14741,0.097505,0.29586,0.82613,0.41797,0.72885,0.63968,0.41898,0.88887,0.87596,0.39819,0.68883,0.56703,0.862,0.092083,0.11277,4
0.23251,0.059968,0.29418,0.3592,0.3889,0.12395,0.83333,0.11599,0.47513,0.16533,0.057939,0.34874,0.91665,0.94056,0.66489,0.7466,0.90942,1,0.96591,0.37844,0.69643,0.43171,0.95312,0.075406,0.043015,5
0.25568,0.16677,0.3947,0.87084,0.37987,0.12015,0.81021,0.11736,0.45998,0.16157,0.074878,0.28301,0.91808,0.77068,0.69616,0.54368,0.74652,0.94906,0.91101,0.31542,0.63744,0.43733,0.93853,0.47213,0.32611,6
0.52434,0.35348,0.50834,0.3058,0.3683,0.087855,0.8473,0.22306,0.48547,0.13702,0.058386,0.45172,0.79438,0.60525,0.65284,0.61327,0.55768,0.94836,0.9864,0.54035,0.79159,0.63748,0.83455,0.097916,0.073635,3
0.44803,0.31102,0.45145,0.30007,0.45998,0.13744,0.91209,0.21757,0.52866,0.20541,0.10277,0.25505,0.88434,0.5466,0.73499,0.62103,0.51982,0.9087,0.87542,0.32805,0.63867,0.47927,0.90954,0.12839,0.21332,4
0.33583,0.096921,0.34264,0.13821,0.41665,0.09427,0.85092,0.19698,0.51136,0.17435,0.1157,0.37583,0.86714,0.7119,0.70316,0.532,0.68556,0.89359,0.89379,0.50552,0.74894,0.57257,0.85805,0.066267,0.10141,3
0.28367,0.19417,0.25827,0.17701,0.54637,0.27302,0.92148,0.23679,0.65548,0.33307,0.37896,0.15668,0.82229,0.16402,0.85192,0.25627,0.19735,0.55694,0.50586,0.27637,0.53596,0.51053,0.76151,0.087793,0.023461,9
0.51992,0.28233,0.50643,0.26441,0.51046,0.18115,0.89475,0.21688,0.57789,0.26513,0.068705,0.36646,0.82231,0.51157,0.68406,0.62814,0.50591,0.93433,0.94691,0.45035,0.7361,0.59911,0.85611,0.18552,0.1954,3
0.23093,0.041491,0.24111,0.085366,0.41718,0.13233,0.84562,0.15031,0.50522,0.18806,0.14238,0.21934,0.86949,0.4217,0.76412,0.53248,0.40607,0.84139,0.79759,0.30119,0.6073,0.50755,0.8709,0.033442,0.069665,9
0.23283,0.090113,0.33267,0.5316,0.36202,0.097097,0.8131,0.11599,0.45363,0.14021,0.08058,0.36495,0.88639,0.81545,0.66731,0.76207,0.73717,0.96061,0.92808,0.41338,0.71634,0.45083,0.93843,0.16374,0.12983,5
0.26988,0.10535,0.31378,0.25092,0.43016,0.10406,0.84754,0.18668,0.51648,0.1884,0.077251,0.25283,0.8993,0.61665,0.7229,0.77188,0.54714,0.94359,0.89027,0.3037,0.621,0.44859,0.93383,0.10666,0.11882,5
0.571,0.37682,0.55893,0.34996,0.36021,0.084158,0.86224,0.31434,0.45455,0.12777,0.079617,0.33382,0.80463,0.47806,0.68378,0.54255,0.43232,0.88687,0.89453,0.38849,0.69936,0.59646,0.84194,0.047107,0.40028,3
0.23521,0.089951,0.23175,0.080192,0.29863,0.078613,0.84152,0.092656,0.41986,0.085979,0.1514,0.17052,0.92912,0.45129,0.79613,0.6091,0.45806,0.85714,0.77582,0.24354,0.54117,0.36871,0.93395,0.049664,0.041155,9
0.47111,0.36094,0.49304,0.34516,0.50719,0.18713,0.87404,0.19561,0.59406,0.27164,0.12422,0.16639,0.88129,0.34967,0.79706,0.81521,0.31933,0.85132,0.77273,0.236,0.53164,0.42276,0.9137,0.11781,0.24521,3
0.28787,0.18509,0.26483,0.182,0.41852,0.09427,0.86585,0.19561,0.4958,0.17104,0.29359,0.15553,0.66253,0.14723,0.81362,0.3073,0.11464,0.58346,0.55798,0.23286,0.52378,0.70097,0.63794,0.0096241,0.046203,9
0,0,0,0,0,0,0,0,0,0,0,0,0,0,0,0,0,0,0,0,0,1,0,0,0,10
0.43991,0.27261,0.42436,0.25702,0.47242,0.15168,0.90246,0.20316,0.58414,0.22631,0.13925,0.15458,0.9241,0.35294,0.81713,0.46639,0.39643,0.85204,0.75983,0.23486,0.52542,0.35841,0.94068,0.098622,0.048407,1
0.47422,0.28736,0.46985,0.28234,0.44045,0.11167,0.88584,0.20041,0.53859,0.19103,0.072271,0.30707,0.89074,0.65626,0.70614,0.59933,0.64593,0.95851,0.93587,0.37985,0.68598,0.49547,0.91571,0.13508,0.072681,3
0.26429,0.072771,0.30021,0.26404,0.43631,0.11341,0.8738,0.2059,0.50716,0.18851,0.099862,0.33146,0.88101,0.66479,0.71714,0.52206,0.65992,0.92945,0.88661,0.44673,0.72041,0.45506,0.92551,0.22685,0.13322,6
0.43806,0.31669,0.46302,0.33315,0.45744,0.1843,0.91113,0.19218,0.54411,0.22596,0.099544,0.18825,0.90693,0.43919,0.78394,0.76806,0.45119,0.91028,0.83983,0.26483,0.5673,0.39657,0.94121,0.15612,0.29823,3
0.37045,0.16661,0.39119,0.22025,0.36724,0.065239,0.84875,0.16335,0.45701,0.12571,0.095745,0.309,0.87355,0.56354,0.72734,0.57828,0.57493,0.92313,0.89111,0.4215,0.70112,0.49582,0.90764,0.26032,0.069164,4
0.17129,0.020908,0.16804,0.01663,0.2099,0.0032619,0.75434,0.032258,0.32108,0.0039963,0.093884,0.51888,0.4293,0.27676,0.6155,0.71379,0.20701,0.77824,0.88278,0.57076,0.82052,0.90601,0.45208,0.0073467,0.053003,10
0.3942,0.22318,0.39155,0.22875,0.38388,0.087311,0.84345,0.15237,0.45957,0.14455,0.11606,0.21105,0.91519,0.55763,0.78091,0.61602,0.53455,0.91291,0.8491,0.30791,0.60578,0.37741,0.95132,0.16997,0.024899,3
0.34538,0.22674,0.38078,0.32576,0.31896,0.056649,0.8249,0.11736,0.42702,0.090774,0.21964,0.20489,0.92009,0.51848,0.81627,0.57379,0.5401,0.81445,0.73395,0.34063,0.60105,0.36892,0.93144,0.10196,0.061615,4
0.51154,0.19109,0.49579,0.19346,0.30512,0.050777,0.80588,0.089911,0.41034,0.081411,0.083394,0.34763,0.78606,0.4468,0.70046,0.60186,0.39477,0.87551,0.88679,0.4473,0.72317,0.62814,0.81957,0.048194,0.13913,3
0.21128,0.014263,0.20821,0.015706,0.3762,0.11091,0.83237,0.11462,0.46612,0.15129,0.074052,0.85981,0.10112,0.30078,0.51881,0.70206,0.17353,0.74473,0.93278,0.84066,0.95199,0.98373,0.19834,0.035514,0.019851,9
0.36121,0.36094,0.36978,0.33555,0.37158,0.12819,0.81912,0.083047,0.45681,0.15689,0.1258,0.17578,0.91809,0.45508,0.79549,0.85404,0.40834,0.87376,0.78273,0.25375,0.5525,0.34838,0.9501,0.13436,0.28346,3
0.44302,0.25429,0.49051,0.36013,0.42635,0.14864,0.85381,0.13658,0.50573,0.19799,0.11866,0.19934,0.87318,0.36023,0.77057,0.75451,0.371,0.8694,0.81056,0.26952,0.57572,0.47029,0.90095,0.069264,0.27103,4
0.51492,0.21848,0.5035,0.20528,0.40528,0.092856,0.88343,0.19423,0.49621,0.15734,0.076405,0.36456,0.77095,0.43913,0.67149,0.60843,0.40434,0.89835,0.92178,0.42141,0.72189,0.65247,0.80477,0.10554,0.051955,3
0.245,0.049433,0.28829,0.26571,0.4214,0.15038,0.85501,0.13246,0.50839,0.19628,0.077169,0.20275,0.94092,0.66593,0.75197,0.5676,0.66705,0.95825,0.88637,0.24966,0.55672,0.35633,0.96556,0.11681,0.074338,6
0.23896,0.086062,0.2255,0.087953,0.39097,0.084593,0.87909,0.19012,0.48547,0.14501,0.20608,0.21023,0.73483,0.22141,0.76139,0.33266,0.20149,0.67483,0.65746,0.27869,0.58669,0.67953,0.70137,0.022951,0.057911,9
0.31496,0.19854,0.28234,0.18237,0.41605,0.13102,0.99831,0.57653,0.56305,0.17059,0.47331,0.17652,0.72472,0.19793,0.88192,0.23064,0.11244,0.47703,0.42559,0.34836,0.51096,0.60729,0.67918,0.063975,0.013489,9
0.31653,0.18898,0.3559,0.33352,0.45256,0.13222,0.8685,0.19355,0.51198,0.20644,0.10929,0.27518,0.89991,0.65162,0.75609,0.63621,0.62776,0.92827,0.87296,0.4018,0.67578,0.41353,0.94151,0.16756,0.19228,4
0.23337,0.053647,0.23823,0.067443,0.47817,0.21942,0.85405,0.14619,0.53357,0.26136,0.1065,0.34061,0.69346,0.29789,0.68652,0.64452,0.27378,0.82207,0.8503,0.40662,0.71053,0.72637,0.71635,0.051456,0.073494,9
0.25252,0.059643,0.32854,0.42868,0.47315,0.15179,0.84778,0.15992,0.54176,0.23533,0.071698,0.23462,0.94241,0.80523,0.73726,0.70342,0.77231,0.98756,0.91753,0.29111,0.60577,0.35476,0.97382,0.14702,0.18852,6
0.67603,0.35867,0.58721,0.44734,0.34089,0.058062,0.8526,0.13658,0.45005,0.10242,0.1767,0.28074,0.782,0.39265,0.75203,0.33843,0.3112,0.74088,0.72671,0.40662,0.67847,0.61902,0.77938,0.048488,0.010097,1
0.70348,0.88071,0.80185,0.97247,0.7433,0.73209,0.90173,0.21414,0.76213,0.69377,0.15648,0.14865,0.95005,0.48449,0.83865,1,0.4,0.82445,0.69958,0.2455,0.52569,0.23008,0.9756,0.11151,0.15946,8
0.54143,0.58444,0.59049,0.59701,0.49716,0.16658,0.90173,0.25669,0.56131,0.24892,0.12856,0.19615,0.89137,0.4395,0.78174,0.83494,0.38865,0.85277,0.78825,0.27828,0.5807,0.42446,0.91898,0.27205,0.25792,3
0.25572,0.10276,0.24395,0.095528,0.43845,0.12167,0.88126,0.19973,0.51894,0.19251,0.27759,0.18806,0.46161,0.13224,0.79839,0.25927,0.076079,0.53202,0.51426,0.28386,0.54911,0.8352,0.47943,0.043654,0.040373,9
0.42499,0.18671,0.43695,0.22044,0.36697,0.093617,0.82081,0.1057,0.46387,0.14079,0.12552,0.22645,0.88379,0.48703,0.76027,0.56821,0.45827,0.86496,0.8157,0.31,0.61437,0.49295,0.89067,0.099797,0.15408,4
0.24225,0.054295,0.23575,0.048226,0.3429,0.062085,0.85356,0.14276,0.44667,0.10493,0.16521,0.34552,0.39193,0.19725,0.67858,0.50089,0.12433,0.65286,0.723,0.40035,0.70759,0.8937,0.44532,0.046945,0.044422,9
0.24283,0.03436,0.23876,0.030857,0.43684,0.19169,0.84899,0.11531,0.53838,0.23042,0.067984,0.69899,0.37612,0.35273,0.55447,0.64649,0.24628,0.80646,0.95179,0.70162,0.89264,0.92811,0.41373,0.02971,0.055285,9
0.23711,0.071961,0.23224,0.066704,0.36249,0.093074,0.82442,0.11187,0.45107,0.13565,0.1454,0.22067,0.80376,0.32508,0.75463,0.49631,0.27869,0.77457,0.75386,0.28988,0.59976,0.60716,0.79482,0.012857,0.02715,1
0.19766,0.015073,0.19402,0.015521,0.32872,0.047842,0.83382,0.13315,0.44473,0.092715,0.076767,0.78363,0.16423,0.29544,0.54232,0.66354,0.17902,0.75062,0.92355,0.80176,0.93019,0.98245,0.20503,0.026507,0.0284,9
0.20041,0.01248,0.19761,0.014043,0.40341,0.12689,0.86175,0.15031,0.49243,0.17241,0.084538,0.77565,0.10684,0.27196,0.54455,0.68107,0.15849,0.72762,0.90204,0.79275,0.93134,0.97778,0.22769,0.042317,0.054878,9
0.39447,0.22301,0.3908,0.22542,0.36503,0.10003,0.82828,0.11187,0.47687,0.14124,0.11761,0.18397,0.92496,0.52328,0.79069,0.56511,0.51072,0.89867,0.8231,0.26476,0.56527,0.37537,0.94414,0.094787,0.15427,3
0.31766,0.37099,0.39439,0.67387,0.41444,0.10536,0.87789,0.47907,0.48854,0.17652,0.12839,0.26622,0.92755,0.7535,0.76325,0.50695,0.75466,0.89314,0.84007,0.39486,0.66819,0.40148,0.9365,0.41378,0.25443,6
0.24576,0.052836,0.30952,0.3544,0.47048,0.15081,0.88319,0.21414,0.55312,0.22791,0.059923,0.31077,0.90607,0.76983,0.69207,0.68194,0.74381,0.98448,0.96445,0.36081,0.67687,0.46235,0.93824,0.41171,0.30614,6
0.27024,0.13144,0.3344,0.41519,0.50879,0.24095,0.86344,0.16129,0.57881,0.29584,0.11444,0.14829,0.96024,0.60276,0.82512,0.58813,0.61031,0.92467,0.81991,0.23031,0.51775,0.24417,0.98943,0.19588,0.16395,6
0.42882,0.15964,0.38915,0.19937,0.31608,0.040992,0.82635,0.11531,0.42446,0.082781,0.072075,0.39989,0.7643,0.47509,0.68551,0.63602,0.43363,0.9062,0.93773,0.51835,0.75429,0.64479,0.81567,0.11476,0.07376,1
0.55229,0.31831,0.46245,0.42055,0.29241,0.035338,0.81455,0.095402,0.4045,0.064741,0.16229,0.32603,0.73752,0.39144,0.74347,0.35336,0.30694,0.76502,0.7453,0.48223,0.7188,0.58663,0.80774,0.078227,0.066007,1
0,0,0,0,0,0,0,0,0,0,0,0,0,0,0,0,0,0,0,0,0,1,0,0,0,10
0.61017,0.63549,0.60176,0.52568,0.35707,0.076112,0.83671,0.1709,0.46172,0.12571,0.21854,0.16662,0.73829,0.16871,0.81613,0.54016,0.16184,0.69036,0.63914,0.25934,0.54969,0.57299,0.77575,1,0.28735,1
0.26104,0.078606,0.27135,0.10458,0.38683,0.11667,0.84803,0.37612,0.46919,0.16202,0.080662,0.41972,0.72334,0.43514,0.65115,0.60152,0.38756,0.86892,0.9153,0.47964,0.76268,0.71731,0.74274,0.048297,0.179,3
0,0,0,0,0,0,0,0,0,0,0,0,0,0,0,0,0,0,0,0,0,1,0,0,0,10
0.23066,0.022528,0.22581,0.023097,0.39097,0.083723,0.87091,0.18463,0.47738,0.14512,0.069258,0.8085,0.24332,0.33504,0.54256,0.6574,0.21604,0.78598,0.95592,0.8385,0.94675,0.96248,0.30265,0.031047,0.071103,9
0.38483,0.17747,0.40259,0.21212,0.44821,0.10754,0.91329,0.23953,0.54217,0.19057,0.11233,0.23126,0.84329,0.39134,0.75002,0.61022,0.36606,0.86979,0.83166,0.30429,0.61465,0.51905,0.87579,0.24388,0.068133,4
0.43081,0.23258,0.41265,0.22228,0.34865,0.076764,0.81142,0.1105,0.452,0.1232,0.084209,0.28433,0.87257,0.54434,0.71248,0.60562,0.5094,0.92086,0.89535,0.34731,0.66102,0.51089,0.89865,0.12436,0.046563,3
0.66566,0.3812,0.59311,0.41704,0.37646,0.097314,0.86103,0.20316,0.49591,0.14353,0.15521,0.23552,0.82056,0.30926,0.80047,0.43551,0.3223,0.80174,0.76614,0.38503,0.6319,0.49955,0.87054,0.035661,0.24522,1
0,0,0,0,0,0,0,0,0,0,0,0,0,0,0,0,0,0,0,0,0,1,0,0,0,10
0.52457,0.14943,0.45367,0.30765,0.31053,0.062412,0.8001,0.073439,0.41453,0.090888,0.1381,0.34569,0.75532,0.40445,0.73288,0.37594,0.36106,0.79877,0.79911,0.50405,0.72585,0.61602,0.79881,0.10115,0.15984,3
0.64127,0.60535,0.71171,0.68034,0.66245,0.53072,0.89066,0.24434,0.67267,0.52546,0.065501,0.47388,0.66954,0.42729,0.62121,0.78029,0.35871,0.87428,0.93916,0.50538,0.78699,0.75553,0.71052,0.26668,0.17561,8
0.32582,0.1846,0.33697,0.1942,0.41157,0.13885,0.84562,0.13452,0.48772,0.18383,0.11814,0.24736,0.87011,0.47228,0.74938,0.69383,0.4451,0.879,0.84425,0.33563,0.63978,0.51027,0.88548,0.11618,0.10208,4
0.31387,0.10843,0.34247,0.23208,0.40856,0.10166,0.89138,0.21551,0.50921,0.16294,0.19894,0.29693,0.86183,0.5595,0.75551,0.58743,0.52179,0.83292,0.79125,0.44459,0.69479,0.49689,0.87988,0.35769,0.38923,4
0.41877,0.24117,0.40068,0.22228,0.40782,0.082744,0.88439,0.22855,0.49437,0.15677,0.14743,0.19527,0.79309,0.28023,0.78103,0.71007,0.23075,0.77755,0.73605,0.27548,0.57875,0.5811,0.8139,0.10116,0.032308,1
0.24707,0.047974,0.2537,0.076866,0.43999,0.13711,0.86874,0.16884,0.52979,0.20256,0.12467,0.27405,0.8228,0.38328,0.72897,0.58118,0.3834,0.84839,0.82125,0.35562,0.65977,0.57269,0.84412,0.12215,0.025712,9
0.27754,0.064992,0.32336,0.25924,0.38108,0.088833,0.85814,0.15031,0.4741,0.14193,0.091382,0.22999,0.92772,0.69305,0.7509,0.81198,0.6501,0.93933,0.87842,0.30307,0.61322,0.39823,0.95026,0.0096095,0.08456,5
0.43333,0.24327,0.46298,0.28732,0.44072,0.11123,0.88849,0.19561,0.53367,0.19,0.11421,0.17486,0.88746,0.36734,0.7877,0.8201,0.3628,0.87057,0.79799,0.24189,0.54111,0.41968,0.91796,0.064401,0.075057,4
0.42035,0.17407,0.38237,0.18625,0.28673,0.03599,0.82225,0.096774,0.40215,0.05926,0.11418,0.36652,0.67038,0.30236,0.69658,0.4466,0.27989,0.80536,0.83417,0.47682,0.73451,0.73202,0.70484,0.034412,0.038857,1
0.24928,0.058995,0.24856,0.059867,0.36342,0.10362,0.83887,0.25189,0.4564,0.14079,0.084501,0.35448,0.75606,0.40909,0.66834,0.66373,0.36399,0.86964,0.89565,0.39615,0.70818,0.67043,0.7837,0.058509,0.087389,9
0.46831,0.47115,0.5388,0.57779,0.47001,0.25824,0.82563,0.14139,0.52538,0.28077,0.080746,0.21426,0.94354,0.72644,0.76557,0.63795,0.72459,0.96112,0.8969,0.29293,0.59972,0.38166,0.95895,0.3889,0.086076,8
0.24806,0.087358,0.3179,0.38452,0.4337,0.14026,0.85092,0.16472,0.52917,0.2037,0.073084,0.25024,0.927,0.7423,0.74943,0.63078,0.70862,0.97694,0.92218,0.34147,0.64286,0.40595,0.95593,0.064959,0.044437,6
0.37112,0.1269,0.35834,0.12602,0.37432,0.07372,0.83165,0.14688,0.47881,0.1377,0.12776,0.2305,0.82379,0.34917,0.76137,0.49126,0.32562,0.82221,0.79668,0.31983,0.61943,0.56059,0.83817,0.024464,0.040952,3
0.50261,0.26985,0.46506,0.27494,0.42775,0.1183,0.85766,0.15511,0.51986,0.18874,0.10521,0.37246,0.79627,0.51724,0.71083,0.49139,0.45992,0.87818,0.88812,0.51403,0.75259,0.6214,0.82426,0.17936,0.15363,3
0.57375,0.41329,0.57524,0.37528,0.42942,0.10536,0.90944,0.23404,0.5217,0.17573,0.099254,0.30207,0.81188,0.44288,0.713,0.46833,0.34627,0.85292,0.83114,0.38258,0.68548,0.5933,0.83904,0.18471,0.13469,3
0.49121,0.24846,0.41514,0.35347,0.334,0.068609,0.82707,0.13384,0.44166,0.10665,0.18073,0.33167,0.75606,0.40695,0.75055,0.35907,0.34374,0.75892,0.75146,0.50545,0.72264,0.619,0.7819,0.1183,0.11174,1
0,0,0,0,0,0,0,0,0,0,0,0,0,0,0,0,0,0,0,0,0,1,0,0,0,10
0.32911,0.074554,0.33533,0.098485,0.35373,0.063282,0.83743,0.14139,0.44688,0.11681,0.10636,0.26057,0.81956,0.36065,0.72977,0.69299,0.35892,0.86912,0.84836,0.3304,0.6419,0.57568,0.84758,0.055115,0.034074,2
0.24594,0.050891,0.23876,0.047672,0.36021,0.078613,0.84875,0.12766,0.45507,0.12389,0.0776,0.54869,0.48791,0.30763,0.60397,0.57924,0.25036,0.80958,0.91863,0.59263,0.83437,0.88003,0.51806,0.040465,0.019554,9
0.20794,0.01637,0.20391,0.017369,0.37559,0.10079,0.81864,0.11462,0.45681,0.14866,0.11475,0.51071,0.21889,0.20537,0.61104,0.73286,0.13012,0.69058,0.81458,0.5456,0.80838,0.96607,0.26666,0.030547,0.02579,9
0.48021,0.29433,0.41837,0.35772,0.28231,0.038382,0.83261,0.18943,0.39529,0.058689,0.12924,0.55566,0.71323,0.5687,0.65451,0.40208,0.49414,0.83811,0.83144,0.73121,0.86166,0.55786,0.84951,0.074422,0.13911,1
0,0,0,0,0,0,0,0,0,0,0,0,0,0,0,0,0,0,0,0,0,1,0,0,0,10
0.19564,0.01329,0.19225,0.014228,0.31548,0.062194,0.81671,0.09197,0.42088,0.091231,0.071663,0.89889,0.10322,0.32001,0.51531,0.6521,0.18199,0.75445,0.94757,0.88913,0.96709,0.98442,0.19611,0.021952,0.034309,9
0.34403,0.1047,0.33222,0.10791,0.5108,0.17756,0.87693,0.19423,0.58454,0.26878,0.084534,0.39804,0.81633,0.62688,0.67852,0.50156,0.49024,0.89561,0.8975,0.49797,0.76113,0.59306,0.8545,0.046622,0.065319,1
0,0,0,0,0,0,0,0,0,0,0,0,0,0,0,0,0,0,0,0,0,1,0,0,0,10
0.21993,0.03517,0.21517,0.032705,0.38335,0.088181,0.83622,0.16747,0.46633,0.14798,0.068122,0.74262,0.32859,0.33529,0.5497,0.63257,0.23705,0.80058,0.95696,0.75741,0.91224,0.94289,0.37146,0.012386,0.01624,9
0.36531,0.18752,0.32637,0.22099,0.51408,0.16038,0.90655,0.2917,0.6089,0.26216,0.15253,0.17918,0.92455,0.51372,0.81558,0.41817,0.49727,0.84112,0.7729,0.28539,0.57002,0.37614,0.93153,0.037512,0.097518,1
0.41589,0.23371,0.41616,0.21545,0.39305,0.1108,0.86416,0.13795,0.48035,0.15654,0.11326,0.27833,0.78394,0.34384,0.73684,0.55472,0.32735,0.84295,0.84125,0.37716,0.67097,0.60956,0.81742,0.17425,0.066101,1
0.20145,0.013452,0.19828,0.014412,0.39077,0.10003,0.83526,0.12697,0.48547,0.15826,0.068488,0.93697,0.0911,0.32613,0.5153,0.74611,0.18522,0.75803,0.95764,0.94786,0.98561,0.98898,0.16582,0.014708,0.041452,9
0,0,0,0,0,0,0,0,0,0,0,0,0,0,0,0,0,0,0,0,0,1,0,0,0,10
0.55508,0.46694,0.56229,0.46729,0.59345,0.40426,0.88078,0.17433,0.5782,0.39518,0.055759,0.57806,0.74734,0.50395,0.59077,0.55863,0.53921,0.92345,0.97182,0.60574,0.8459,0.6947,0.79271,0.068295,0.28122,8
0.38735,0.25381,0.40113,0.25296,0.40983,0.12537,0.89186,0.17639,0.49928,0.16979,0.10694,0.20469,0.8809,0.40565,0.77754,0.67224,0.39662,0.88964,0.82714,0.29018,0.5927,0.42841,0.92151,0.0247,0.12403,4
0.22913,0.038088,0.22413,0.036216,0.39853,0.12689,0.84128,0.12972,0.47103,0.1691,0.13629,0.35298,0.42283,0.18886,0.68139,0.60436,0.13788,0.697,0.76125,0.42043,0.71763,0.88682,0.46189,0.021305,0.017709,9
0.28043,0.14749,0.33027,0.29823,0.66051,0.42688,0.89764,0.27385,0.68936,0.47739,0.082842,0.32265,0.81587,0.48021,0.6952,0.82777,0.4417,0.90947,0.89683,0.38948,0.69544,0.5452,0.87681,0.088909,0.063209,5
0.25036,0.15316,0.35031,0.63415,0.39325,0.12395,0.81599,0.11874,0.47155,0.1715,0.1651,0.13772,0.96194,0.56786,0.85251,0.49845,0.5791,0.85953,0.75608,0.23554,0.50869,0.2344,0.97875,0.11712,0.33815,10
0.25888,0.13063,0.24878,0.11881,0.47857,0.17517,0.88367,0.18806,0.53777,0.23818,0.20399,0.27807,0.51935,0.13954,0.73983,0.40752,0.13445,0.65306,0.67798,0.38198,0.66815,0.82869,0.53989,0.033471,0.055707,9
0.51745,0.33809,0.50235,0.31061,0.41625,0.11971,0.87934,0.17982,0.50235,0.17538,0.13881,0.16414,0.88193,0.35918,0.80639,0.69132,0.31722,0.84048,0.76353,0.24263,0.53705,0.4303,0.90989,0.14539,0.080371,3
0,0,0,0,0,0,0,0,0,0,0,0,0,0,0,0,0,0,0,0,0,1,0,0,0,9
0.28998,0.14976,0.3829,0.54084,0.57312,0.24802,0.86368,0.19492,0.63122,0.34471,0.071702,0.20974,0.96244,0.87432,0.76488,0.65318,0.88828,0.99003,0.91287,0.28272,0.59026,0.32124,0.98348,0.16978,0.27102,6
0.57262,0.34295,0.53831,0.34035,0.35547,0.06687,0.83887,0.1359,0.46622,0.11921,0.11559,0.336,0.84574,0.57441,0.72788,0.45283,0.53788,0.8652,0.86184,0.47526,0.72459,0.57709,0.84628,0.20478,0.08517,3
0.26339,0.094003,0.31174,0.36179,0.41953,0.20496,0.85934,0.15923,0.4999,0.21877,0.12608,0.2085,0.93735,0.67214,0.77762,0.50923,0.6579,0.89965,0.82835,0.29814,0.59897,0.38258,0.94497,0.13926,0.064788,6
0.35746,0.21264,0.36384,0.2088,0.41565,0.12809,0.84489,0.14825,0.49038,0.1836,0.14378,0.32653,0.72012,0.33354,0.71886,0.55225,0.29772,0.8009,0.808,0.44068,0.71542,0.67928,0.74721,0.093097,0.31625,3
0.20384,0.013452,0.20129,0.015706,0.39351,0.11895,0.82298,0.13933,0.45824,0.16533,0.064304,0.97424,0.18721,0.38387,0.50174,0.68957,0.23296,0.79944,0.98857,0.95784,0.98745,0.9711,0.27149,0.042199,0.074385,9
0.3013,0.081848,0.2921,0.079084,0.40214,0.078721,0.87476,0.22581,0.487,0.15312,0.10598,0.29938,0.69089,0.27646,0.71006,0.60126,0.24608,0.80529,0.82164,0.37257,0.67515,0.69534,0.73733,0.038159,0.065804,1
0.22994,0.079092,0.28935,0.32132,0.32564,0.061651,0.80371,0.10089,0.4218,0.10139,0.077101,0.43409,0.84092,0.76731,0.64214,0.8314,0.64531,0.94856,0.92773,0.48429,0.77035,0.51803,0.90464,0.14006,0.14349,5
0.28989,0.16224,0.37142,0.57613,0.41999,0.16451,0.83935,0.13246,0.4912,0.20176,0.12626,0.28698,0.88874,0.61571,0.73197,0.47672,0.60431,0.87998,0.83436,0.38608,0.67841,0.47087,0.90242,0.26638,0.071353,6
0.5137,0.36791,0.51459,0.34054,0.45142,0.29977,0.81671,0.10844,0.51024,0.29208,0.091134,0.28838,0.80216,0.32325,0.68798,0.69726,0.3336,0.85691,0.83683,0.31051,0.63324,0.58936,0.83633,0.061506,0.20829,8
0.43698,0.24538,0.42578,0.22894,0.36617,0.079917,0.87018,0.13864,0.46643,0.12503,0.1218,0.17041,0.8884,0.35584,0.80118,0.5508,0.35453,0.85522,0.78569,0.24956,0.54635,0.41618,0.91614,0.11377,0.18739,3
0.17598,0.011669,0.17372,0.013304,0.31882,0.058715,0.79504,0.17021,0.39754,0.09557,0.058423,0.84212,0.32106,0.37844,0.52128,0.70729,0.26479,0.8194,0.97992,0.81869,0.9475,0.93516,0.39878,0.016809,0.03062,9
0.36021,0.28833,0.42946,0.47081,0.40334,0.17397,0.86753,0.13933,0.49079,0.19137,0.094791,0.26197,0.87898,0.53854,0.71957,0.81496,0.51568,0.91405,0.87295,0.31602,0.63287,0.41787,0.93817,0.010535,0.080043,4
0.5055,0.23323,0.51113,0.25,0.40796,0.10069,0.86729,0.17708,0.48465,0.16328,0.1492,0.35481,0.77409,0.42905,0.72188,0.44531,0.39752,0.82105,0.82023,0.50136,0.73955,0.63936,0.78863,0.45065,0.22211,3
0.21376,0.016207,0.2087,0.018293,0.36289,0.068609,0.85356,0.16198,0.46213,0.12286,0.0598,1,0.19162,0.38258,0.50347,0.65042,0.2412,0.80647,1,1,1,0.97342,0.26163,0.047504,0.04872,9
0.37378,0.20113,0.41434,0.26608,0.46754,0.1507,0.91956,0.20796,0.5782,0.21968,0.1082,0.20091,0.88476,0.39806,0.7715,0.76586,0.40561,0.89139,0.83256,0.27403,0.58019,0.4426,0.91831,0.061977,0.075073,4
0.25406,0.056888,0.27791,0.17683,0.37539,0.088072,0.84899,0.23267,0.47195,0.14147,0.10619,0.34843,0.85321,0.62927,0.73742,0.51182,0.57555,0.91274,0.8755,0.51758,0.72545,0.48085,0.91099,0.051574,0.05852,6
0.1854,0.01248,0.18201,0.013858,0.34978,0.066217,0.8249,0.16266,0.44166,0.11829,0.072512,0.78037,0.2319,0.31573,0.53417,0.63656,0.20409,0.77383,0.94212,0.76675,0.92181,0.96483,0.29105,0.0053484,0.031917,9
0.3773,0.14571,0.36193,0.14228,0.332,0.063608,0.83406,0.12217,0.44104,0.10116,0.1064,0.23591,0.84343,0.3877,0.75991,0.64688,0.37036,0.8797,0.84349,0.32908,0.62151,0.51128,0.88169,0.057657,0.13656,2
0.45655,0.28006,0.47584,0.27458,0.41872,0.12602,0.87693,0.16129,0.51822,0.18121,0.10958,0.16257,0.91493,0.40858,0.80056,0.78415,0.41213,0.89404,0.80911,0.23228,0.5265,0.36953,0.94353,0.13631,0.20501,2
0.3452,0.14246,0.32207,0.15262,0.53915,0.1893,0.92365,0.24914,0.62651,0.28671,0.12459,0.24777,0.81378,0.31226,0.74269,0.42479,0.32621,0.82067,0.79138,0.32595,0.63483,0.56148,0.84077,0.098607,0.069414,1
0.32438,0.20519,0.3923,0.41242,0.47763,0.1569,0.87355,0.18325,0.56121,0.23704,0.082807,0.19197,0.955,0.74842,0.76923,0.83787,0.73673,0.96844,0.88386,0.2525,0.55752,0.31974,0.97934,0.27327,0.16707,5
0.37468,0.28314,0.39044,0.29047,0.45971,0.13852,0.8909,0.23336,0.52661,0.21135,0.084193,0.28998,0.85946,0.53918,0.7007,0.68423,0.48855,0.9226,0.8937,0.3371,0.65451,0.51406,0.89812,0.19048,0.18339,4
0.27889,0.15138,0.2502,0.16408,0.29509,0.04545,0.79937,0.075498,0.40297,0.073076,0.20307,0.1786,0.90537,0.43828,0.79564,0.32676,0.36613,0.72661,0.66618,0.25987,0.55801,0.45428,0.86872,0.041861,0.077089,9
0,0,0,0,0,0,0,0,0,0,0,0,0,0,0,0,0,0,0,0,0,1,0,0,0,10
0.39208,0.2188,0.40707,0.22173,0.32257,0.063934,0.81334,0.089224,0.42508,0.097853,0.088077,0.20358,0.9142,0.54186,0.76746,0.78838,0.50175,0.92783,0.86234,0.27382,0.58104,0.41681,0.93923,0.066664,0.14205,2
0.5211,0.20648,0.52909,0.23448,0.40655,0.092965,0.87139,0.16678,0.49171,0.15974,0.076121,0.26973,0.89344,0.59861,0.73496,0.65531,0.5876,0.94862,0.91804,0.35705,0.65997,0.47301,0.92191,0.13703,0.094876,4
0.5581,0.22172,0.49229,0.32243,0.32477,0.052408,0.82129,0.12766,0.42416,0.094542,0.15987,0.31198,0.64861,0.29475,0.72309,0.32413,0.21499,0.70489,0.72028,0.41965,0.70365,0.72904,0.67798,0.051882,0.036059,1
0.35021,0.19109,0.38015,0.24741,0.43918,0.12678,0.83984,0.14962,0.5216,0.20324,0.13291,0.1578,0.92187,0.44443,0.80741,0.92549,0.38868,0.85832,0.75934,0.23043,0.52274,0.35262,0.94431,0.051721,0.06446,5
0.24608,0.09222,0.28767,0.28086,0.33353,0.11406,0.8237,0.11874,0.44063,0.1288,0.10214,0.1859,0.92966,0.55996,0.78096,0.49525,0.54164,0.90964,0.82991,0.256,0.55893,0.35071,0.95598,0.4023,0.17461,6
0.45785,0.18347,0.41758,0.21175,0.36483,0.069697,0.84538,0.14894,0.47073,0.12628,0.086359,0.50089,0.62506,0.4201,0.66007,0.55077,0.33186,0.85068,0.91007,0.64811,0.82439,0.76741,0.68784,0.035132,0.029698,3
0,0,0,0,0,0,0,0,0,0,0,0,0,0,0,0,0,0,0,0,0,1,0,0,0,10
0.31117,0.1423,0.3876,0.41722,0.378,0.10373,0.81118,0.10638,0.47032,0.15472,0.08349,0.38293,0.89594,0.90853,0.67574,0.84052,0.82438,0.95624,0.92908,0.46398,0.74666,0.473,0.92605,0.16899,0.048235,5
0.30468,0.19951,0.39385,0.55617,0.48011,0.1918,0.85549,0.16678,0.53071,0.25051,0.080368,0.20465,0.95235,0.76556,0.76564,0.84777,0.76374,0.96928,0.8888,0.27342,0.58068,0.32269,0.97831,0.09727,0.22603,5
0.25352,0.20162,0.36499,0.65965,0.42581,0.18234,0.82081,0.12217,0.49836,0.21843,0.08084,0.20648,0.93972,0.68548,0.74729,0.69836,0.66617,0.95762,0.88488,0.25019,0.55825,0.35633,0.96784,0.077008,0.047798,6
0.39168,0.12366,0.36273,0.15669,0.46713,0.12548,0.88463,0.20796,0.55466,0.21592,0.11006,0.28266,0.78946,0.39828,0.72702,0.44726,0.32159,0.82913,0.81646,0.36923,0.67159,0.61381,0.81473,0.13192,0.056613,3
0.51271,0.24084,0.48461,0.23004,0.32879,0.074372,0.82755,0.096088,0.43889,0.10425,0.11113,0.28681,0.7397,0.30915,0.72974,0.4799,0.28036,0.81543,0.81791,0.38217,0.67705,0.64341,0.78275,0.10817,0.12265,3
0,0,0,0,0,0,0,0,0,0,0,0,0,0,0,0,0,0,0,0,0,1,0,0,0,10
0.37761,0.1577,0.36508,0.16833,0.3227,0.060346,0.8078,0.10364,0.42211,0.097968,0.082509,0.42752,0.7385,0.46695,0.66878,0.56069,0.41798,0.87989,0.92134,0.5315,0.78302,0.69898,0.7633,0.14226,0.31183,3
0.20407,0.01718,0.19926,0.018662,0.33206,0.082744,0.81599,0.089911,0.43316,0.11178,0.082528,0.67634,0.29161,0.2931,0.56999,0.65559,0.19996,0.76614,0.91366,0.71166,0.8933,0.9526,0.33196,0.029122,0.048532,9
0.25482,0.10891,0.24142,0.10477,0.4103,0.1146,0.85308,0.16678,0.48772,0.17321,0.1823,0.24658,0.64807,0.18712,0.736,0.42595,0.17429,0.68599,0.70063,0.31288,0.6258,0.75504,0.63746,0.066723,0.038388,9
0.38194,0.31378,0.37457,0.28917,0.3116,0.069479,0.79143,0.054907,0.41003,0.09557,0.088646,0.20861,0.90975,0.55543,0.7539,0.71542,0.48805,0.92099,0.85261,0.26438,0.57413,0.4164,0.94223,0.012666,0.040623,3
0.34417,0.14959,0.33883,0.15244,0.33674,0.060128,0.83213,0.11805,0.44186,0.10379,0.10795,0.23689,0.87751,0.48377,0.74243,0.5995,0.45865,0.88541,0.8456,0.3038,0.6164,0.5017,0.88932,0.052881,0.097877,3
0.30454,0.24246,0.40937,0.67443,0.39525,0.13852,0.83141,0.13384,0.46499,0.1731,0.06789,0.28777,0.89356,0.67466,0.69637,0.74247,0.59772,0.9604,0.92052,0.32492,0.64612,0.46266,0.93318,0.34435,0.32455,6
0.29954,0.10551,0.35887,0.31763,0.3233,0.046863,0.82563,0.12697,0.42528,0.090774,0.080244,0.44683,0.79391,0.63993,0.64598,0.81736,0.53611,0.92208,0.94184,0.51604,0.78491,0.63098,0.83148,0.089174,0.11362,5
0.65169,0.33566,0.61962,0.31818,0.51133,0.1905,0.87428,0.1757,0.59314,0.27541,0.098701,0.25503,0.82374,0.409,0.73547,0.46954,0.34843,0.85257,0.83033,0.3288,0.63956,0.57166,0.84737,0.062109,0.13947,3
0.43045,0.32528,0.43651,0.3265,0.40254,0.098945,0.84682,0.14345,0.49028,0.16408,0.13393,0.22735,0.89028,0.50354,0.77285,0.60165,0.48207,0.86392,0.8079,0.33011,0.62527,0.45328,0.90842,0.19407,0.098659,3
0,0,0,0,0,0,0,0,0,0,0,0,0,0,0,0,0,0,0,0,0,1,0,0,0,10
0.2541,0.097893,0.23317,0.1044,0.2773,0.030336,0.78613,0.078243,0.38956,0.056634,0.14189,0.18471,0.87603,0.38975,0.79873,0.50748,0.33953,0.83067,0.77031,0.27656,0.57236,0.46511,0.89205,0.023069,0.054644,1
0.30441,0.13679,0.28793,0.1299,0.4882,0.18713,0.86103,0.15649,0.56899,0.25908,0.12561,0.23539,0.84955,0.3282,0.75158,0.48724,0.35725,0.83713,0.80064,0.31498,0.62279,0.53885,0.86136,0.035587,0.0095502,1
0.28426,0.24554,0.25703,0.23356,0.38328,0.086332,0.85501,0.17296,0.48188,0.14512,1,0.021838,1,0.11822,1,0.19576,0.14172,0.23874,0.19607,0.051034,0.16491,0,0.76051,0.0030856,0.15338,9
0.3929,0.18379,0.40565,0.19642,0.3096,0.047515,0.80756,0.088538,0.41627,0.083238,0.1122,0.21044,0.89159,0.47694,0.7745,0.66533,0.4501,0.89837,0.84114,0.29778,0.60046,0.44588,0.91955,0.1371,0.073869,4
0.3603,0.5752,0.31719,0.54139,0.34256,0.056214,0.85188,0.16609,0.44176,0.10413,0.78271,0.12023,0.96182,0.35031,0.91016,0.22595,0.25455,0.37822,0.32641,0.24407,0.43808,0.25987,0.8041,0.17132,0.044312,9
0.35958,0.10146,0.35679,0.13932,0.33414,0.054583,0.81768,0.14345,0.43265,0.10368,0.15177,0.33709,0.85597,0.60161,0.73394,0.53172,0.57426,0.81802,0.8118,0.48793,0.72416,0.58721,0.82732,0.137,0.1407,3
0.36274,0.18055,0.36703,0.18034,0.45196,0.13885,0.86103,0.16472,0.52979,0.21261,0.10553,0.30229,0.85469,0.53138,0.72101,0.55249,0.51021,0.88422,0.87559,0.39738,0.68999,0.56131,0.86,0.049972,0.078918,3
0.20271,0.023501,0.19673,0.026238,0.36336,0.10232,0.86416,0.31434,0.46807,0.13816,0.064723,0.53257,0.61985,0.4122,0.6066,0.72465,0.34903,0.8708,0.96087,0.57143,0.82468,0.79888,0.65886,0.031503,0.010566,1
0.21615,0.021556,0.20883,0.027901,0.33601,0.081766,0.81888,0.096088,0.43767,0.11384,0.090197,0.5456,0.47625,0.33193,0.60167,0.59307,0.24315,0.78357,0.89153,0.58243,0.82737,0.8839,0.50294,0.060404,0.024524,9
0.61675,0.47942,0.6276,0.45806,0.4329,0.13689,0.86127,0.19423,0.50952,0.19822,0.097364,0.2437,0.85354,0.44719,0.7281,0.87628,0.3914,0.88297,0.84329,0.29433,0.61094,0.51285,0.88643,0.11101,0.10766,3
0,0,0,0,0,0,0,0,0,0,0,0,0,0,0,0,0,0,0,0,0,1,0,0,0,10
0.22895,0.042464,0.22382,0.04102,0.37212,0.08829,0.85983,0.19767,0.46817,0.13679,0.095109,0.40808,0.60031,0.27266,0.6485,0.58726,0.23777,0.79688,0.85446,0.45239,0.74472,0.7967,0.63466,0.04001,0.073275,9
0.26082,0.032739,0.24138,0.06966,0.3895,0.085789,0.84827,0.15923,0.49417,0.15026,0.15985,0.38602,0.6249,0.31643,0.68848,0.44339,0.25647,0.73831,0.78236,0.49655,0.75266,0.77648,0.63627,0.013826,0.022445,9
0.23174,0.11248,0.33919,0.63803,0.38917,0.13309,0.82563,0.1208,0.487,0.17344,0.11646,0.23408,0.89972,0.54772,0.76141,0.47508,0.53423,0.88766,0.82184,0.32715,0.6285,0.39631,0.93439,0.3397,0.14938,6
0,0,0,0,0,0,0,0,0,0,0,0,0,0,0,0,0,0,0,0,0,1,0,0,0,10
0.32005,0.16823,0.38818,0.39523,0.43618,0.12874,0.84586,0.14688,0.52579,0.20107,0.087165,0.1993,0.94206,0.644,0.77295,0.69967,0.66033,0.96426,0.8753,0.27274,0.57861,0.31017,0.98061,0.15957,0.10308,6
0.53741,0.44133,0.52838,0.38599,0.3893,0.089377,0.85043,0.16335,0.48403,0.15118,0.098185,0.28251,0.76814,0.34388,0.7249,0.70259,0.31133,0.839,0.83235,0.36531,0.6614,0.6097,0.81445,0.057583,0.054112,1
0.36603,0.14295,0.34491,0.15262,0.39057,0.080787,0.84947,0.17021,0.48301,0.14923,0.090778,0.38146,0.77524,0.50106,0.70373,0.54819,0.42293,0.88483,0.90199,0.51953,0.7465,0.64693,0.80939,0.13791,0.069508,1
0,0,0,0,0,0,0,0,0,0,0,0,0,0,0,0,0,0,0,0,0,1,0,0,0,10
0,0,0,0,0,0,0,0,0,0,0,0,0,0,0,0,0,0,0,0,0,1,0,0,0,10
0.25207,0.050891,0.30212,0.28234,0.42581,0.13211,0.86681,0.16266,0.51914,0.19045,0.074751,0.18418,0.96307,0.79225,0.77631,0.64918,0.77912,0.99069,0.89436,0.24618,0.54858,0.28398,0.99199,0.14889,0.29212,6
0.43414,0.22075,0.43416,0.20547,0.36115,0.095466,0.84393,0.086479,0.46131,0.13211,0.11119,0.18349,0.87973,0.38033,0.78511,0.59916,0.36221,0.86856,0.8076,0.2565,0.55845,0.45547,0.90398,0.091216,0.027838,3
0.19712,0.025608,0.19132,0.029564,0.35914,0.090138,0.80515,0.10844,0.44596,0.13622,0.093611,0.5172,0.62835,0.45533,0.62415,0.564,0.33441,0.8192,0.90196,0.5903,0.82208,0.80412,0.64393,0.019645,0.055035,9
0.70704,0.34489,0.72178,0.35495,0.61371,0.39948,0.87548,0.186,0.64923,0.43572,0.063244,0.38876,0.80216,0.55836,0.66206,0.63721,0.49431,0.92995,0.95691,0.44655,0.74188,0.62965,0.83636,0.21073,0.22334,8
0,0,0,0,0,0,0,0,0,0,0,0,0,0,0,0,0,0,0,0,0,1,0,0,0,9
0.21529,0.032091,0.20644,0.036031,0.3786,0.10558,0.82153,0.10432,0.4828,0.15437,0.13133,0.38634,0.49272,0.19207,0.66725,0.44032,0.17585,0.71904,0.78567,0.4541,0.73916,0.86727,0.5114,0.058671,0.022461,9
0.5563,0.447,0.60326,0.47967,0.41953,0.10873,0.86994,0.18874,0.5089,0.17687,0.12847,0.18784,0.89843,0.44805,0.77442,0.9841,0.37768,0.84474,0.76444,0.25117,0.55468,0.40609,0.92342,0.019983,0.15641,2
0.24026,0.041167,0.25698,0.13064,0.46092,0.17473,0.85645,0.15786,0.54882,0.23578,0.15417,0.16471,0.95065,0.59522,0.82088,0.52284,0.60281,0.86278,0.7772,0.26073,0.54876,0.3068,0.95929,0.12206,0.052049,6
0.55883,0.67245,0.5924,0.65835,0.59786,0.26933,0.9275,0.28826,0.61955,0.35042,0.13287,0.23575,0.78655,0.20852,0.73527,0.75082,0.24827,0.79768,0.75663,0.29018,0.60525,0.57757,0.83201,0.059684,0.08306,8
0.2637,0.060292,0.31347,0.32927,0.44875,0.12482,0.87645,0.21071,0.51433,0.20062,0.062585,0.30978,0.8972,0.72262,0.6762,0.61557,0.69184,0.9706,0.95038,0.32846,0.65295,0.47487,0.92932,0.19914,0.19796,6
0.41246,0.37147,0.40999,0.32428,0.38482,0.091769,0.83791,0.13384,0.49038,0.15038,0.11171,0.2271,0.89404,0.50952,0.76654,0.7432,0.49583,0.87838,0.83627,0.32051,0.62152,0.46265,0.90719,0.08719,0.12576,3
0.46326,0.33841,0.40986,0.38174,0.36536,0.10493,0.8225,0.095402,0.46725,0.14433,0.11806,0.16867,0.95135,0.58115,0.83436,0.4959,0.61003,0.90175,0.81104,0.28414,0.55415,0.26338,0.98328,0.034147,0.19518,1
0.2555,0.085575,0.33165,0.45639,0.40241,0.093835,0.83454,0.186,0.49243,0.16648,0.12253,0.26206,0.90039,0.62194,0.75131,0.52475,0.60008,0.90455,0.84163,0.36807,0.65976,0.41554,0.93257,0.29065,0.27522,6
0.42522,0.36969,0.42897,0.31948,0.44915,0.13526,0.83911,0.16266,0.53623,0.215,0.11634,0.20879,0.83467,0.31513,0.77357,0.77328,0.3102,0.84551,0.80133,0.2931,0.59519,0.51764,0.86847,0.022907,0.11077,3
0.26659,0.10389,0.30513,0.27772,0.38148,0.10036,0.82779,0.11942,0.46592,0.15163,0.13161,0.21973,0.91458,0.5825,0.7901,0.50251,0.5615,0.8907,0.82156,0.3383,0.61964,0.37785,0.94449,0.14272,0.10871,6
0.30427,0.15981,0.42937,0.87842,0.46165,0.19061,0.83261,0.15237,0.51075,0.24069,0.068723,0.45428,0.8729,0.89797,0.6217,0.56078,0.85899,0.95697,0.96126,0.47239,0.76795,0.52199,0.90701,0.60513,0.56751,6
0.60372,0.3752,0.60663,0.33352,0.35694,0.073611,0.84899,0.1407,0.45977,0.12103,0.096112,0.35108,0.72351,0.38868,0.69688,0.54141,0.32166,0.85082,0.86432,0.44673,0.72918,0.65828,0.78878,0.30414,0.064006,3
0.2097,0.019935,0.20524,0.020695,0.31053,0.045232,0.83285,0.18737,0.41279,0.079927,0.081584,0.59749,0.35048,0.26783,0.58321,0.61791,0.19872,0.76918,0.8976,0.61947,0.84975,0.92956,0.4004,0.010829,0.040451,9
0.20087,0.013776,0.19695,0.015336,0.38088,0.097967,0.86031,0.29719,0.49621,0.14809,0.064805,0.90175,0.16829,0.34114,0.5107,0.6252,0.20776,0.77853,0.96462,0.87502,0.96727,0.97834,0.23229,0.043933,0.072056,9
0.26249,0.088331,0.32571,0.34904,0.41351,0.11819,0.85284,0.17433,0.50379,0.17938,0.10198,0.26279,0.8951,0.60878,0.73308,0.66487,0.57622,0.92722,0.88795,0.34025,0.64899,0.44,0.93171,0.063446,0.041327,6
0.29517,0.15835,0.27827,0.1554,0.50966,0.20942,0.87741,0.18806,0.61402,0.28374,0.26938,0.17359,0.9274,0.45811,0.82286,0.30924,0.35923,0.68754,0.61279,0.28193,0.56324,0.40392,0.88035,0.066003,0.069321,1
0.22038,0.064182,0.20923,0.059867,0.37165,0.097749,0.84634,0.33288,0.48884,0.14535,0.11513,0.33902,0.64753,0.25057,0.68195,0.48556,0.23806,0.7809,0.81216,0.3951,0.70106,0.76081,0.67017,0.023289,0.068711,1
0.58493,0.61232,0.5799,0.58259,0.43537,0.14657,0.84658,0.16678,0.50082,0.20427,0.1251,0.29616,0.88626,0.63125,0.75242,0.43687,0.50983,0.86268,0.81363,0.4387,0.68539,0.48123,0.90053,0.10641,0.38198,1
0.19054,0.013128,0.18724,0.014228,0.51501,0.35707,0.84995,0.12491,0.58956,0.36549,0.11548,0.54266,0.10977,0.19045,0.59683,0.55443,0.11148,0.6617,0.80216,0.56298,0.82305,0.98708,0.16434,0.016721,0.056582,9
0.39605,0.13274,0.43074,0.20103,0.44273,0.1519,0.85886,0.18668,0.57103,0.21329,0.11609,0.16883,0.89161,0.38519,0.79744,0.88905,0.35516,0.86354,0.78955,0.24162,0.53848,0.41882,0.91936,0.24293,0.11252,2
0.41476,0.15948,0.44843,0.26977,0.39519,0.087529,0.90318,0.18737,0.49417,0.14353,0.092748,0.24941,0.90709,0.60018,0.7422,0.60539,0.60153,0.9237,0.88048,0.32843,0.63701,0.4533,0.92447,0.19707,0.22019,4
0.43779,0.46937,0.43021,0.39339,0.30665,0.06252,0.80323,0.076184,0.41024,0.087463,0.34747,0.12223,0.78825,0.15197,0.85883,0.65543,0.14158,0.62837,0.56125,0.20747,0.47916,0.49372,0.79082,0.13707,0.04772,1
0.4428,0.35203,0.43855,0.3167,0.34764,0.068283,0.8237,0.12697,0.45415,0.11658,0.098206,0.17711,0.92922,0.51999,0.79257,0.58634,0.51845,0.91682,0.84207,0.25286,0.55253,0.37131,0.94979,0.13434,0.18033,4
0.23265,0.091572,0.2823,0.34959,0.34858,0.089594,0.8066,0.12697,0.43593,0.12754,0.14815,0.20974,0.92615,0.60393,0.80719,0.51941,0.5966,0.88235,0.80604,0.33964,0.60824,0.31884,0.96197,0.085839,0.24902,6
0.45276,0.34473,0.43731,0.33056,0.42106,0.12124,0.86537,0.17708,0.49632,0.18098,0.1075,0.24208,0.89935,0.41748,0.75974,0.46675,0.47646,0.87486,0.82028,0.34082,0.63471,0.4425,0.92188,0.12686,0.14841,1
0.36269,0.25267,0.36326,0.24667,0.34076,0.055235,0.83815,0.14619,0.4303,0.10333,0.089048,0.37493,0.80872,0.54884,0.69692,0.62634,0.49158,0.91107,0.90826,0.49193,0.74835,0.58727,0.85575,0.097241,0.24421,3
0.41088,0.17763,0.37754,0.21268,0.33594,0.078721,0.80323,0.090597,0.43777,0.11567,0.085751,0.32272,0.85536,0.59256,0.71412,0.53692,0.54396,0.91377,0.90261,0.42445,0.70864,0.54938,0.87672,0.07163,0.032621,3
1,0.43679,1,0.42461,0.74724,0.52571,1,1,0.78373,0.57901,0.070994,0.372,0.79862,0.43704,0.66686,0.66836,0.44954,0.91262,0.93276,0.42545,0.72858,0.62346,0.83763,0.4403,0.43255,8
0.50933,0.38687,0.49911,0.38932,0.45309,0.17647,0.89788,0.28346,0.56407,0.22916,0.11704,0.19812,0.91674,0.52472,0.81738,0.52312,0.48945,0.88482,0.8141,0.32764,0.59114,0.35605,0.95269,0.093229,0.053081,10
0.22949,0.034522,0.22435,0.030488,0.46279,0.16766,0.88343,0.16609,0.56254,0.22939,0.096262,0.57541,0.27124,0.24074,0.59771,0.65015,0.16293,0.72939,0.86426,0.62133,0.84871,0.95818,0.30461,0.0059508,0.014724,9
0.2619,0.19903,0.33803,0.48245,0.5231,0.27009,0.86079,0.27042,0.5826,0.32074,0.07168,0.29234,0.90074,0.70843,0.68552,0.71695,0.6268,0.95823,0.90857,0.31341,0.63636,0.44668,0.94082,0.18904,0.37599,6
0.22769,0.01637,0.22462,0.017738,0.34517,0.077308,0.83695,0.10844,0.44872,0.11509,0.074204,0.82355,0.13758,0.30273,0.52424,0.63192,0.17837,0.75096,0.93429,0.80372,0.93595,0.98766,0.17342,0.023465,0.027291,9
0.56176,0.28963,0.50993,0.32502,0.29856,0.042949,0.80997,0.096088,0.40123,0.072962,0.12331,0.36379,0.73465,0.43941,0.71475,0.39193,0.3089,0.79355,0.79665,0.50599,0.73463,0.68343,0.75321,0.23765,0.16778,1
0,0,0,0,0,0,0,0,0,0,0,0,0,0,0,0,0,0,0,0,0,1,0,0,0,10
0.21953,0.033874,0.21114,0.036216,0.31588,0.04969,0.82274,0.10913,0.42303,0.086093,0.14623,0.35682,0.459,0.22793,0.67485,0.49835,0.14941,0.68685,0.75411,0.41385,0.71718,0.8693,0.50027,0.014311,0.025415,9
0.19577,0.020583,0.19407,0.022358,0.49402,0.20528,0.82996,0.15168,0.54012,0.27175,0.095876,0.48943,0.4457,0.27892,0.62028,0.64325,0.20033,0.76938,0.86663,0.53103,0.80036,0.88726,0.49073,0.029005,0.052049,9
0.41228,0.38136,0.48843,0.5497,0.52203,0.15266,0.89306,0.26699,0.59601,0.26684,0.09943,0.17571,0.94497,0.58709,0.78165,0.82741,0.51533,0.92947,0.81571,0.23578,0.53434,0.29893,0.97878,0.19454,0.053847,4
0.26871,0.13144,0.26341,0.12121,0.35921,0.09166,0.81912,0.11942,0.45148,0.13473,0.11742,0.21754,0.89036,0.46767,0.75355,0.54802,0.41116,0.86771,0.80745,0.28195,0.59258,0.4523,0.91057,0.099415,0.044453,1
0,0,0,0,0,0,0,0,0,0,0,0,0,0,0,0,0,0,0,0,0,1,0,0,0,10
0.38325,0.30713,0.40419,0.28492,0.38536,0.12819,0.82225,0.10158,0.48628,0.16899,0.10302,0.20003,0.88382,0.42317,0.77481,0.77027,0.39919,0.88455,0.82947,0.27682,0.58199,0.4529,0.91232,0.045109,0.040717,3
0.32289,0.1201,0.3109,0.11419,0.4444,0.13841,0.87572,0.16609,0.53644,0.20484,0.10181,0.31084,0.8071,0.35658,0.71326,0.50906,0.3858,0.86194,0.85568,0.40007,0.69353,0.60334,0.83316,0.06399,0.056848,1
0.27105,0.15786,0.40627,0.82373,0.46968,0.15255,0.83165,0.17159,0.53501,0.23693,0.068677,0.33853,0.9095,0.84195,0.68549,0.59491,0.83427,0.97854,0.94683,0.4007,0.70684,0.45118,0.93953,0.57181,0.17483,6
0.28575,0.089789,0.32854,0.30451,0.40348,0.098184,0.86368,0.16678,0.48813,0.16088,0.1246,0.16658,0.96273,0.70137,0.81707,0.54953,0.70816,0.91795,0.82615,0.26036,0.55041,0.28813,0.97692,0.083458,0.055535,6
0.35918,0.18979,0.36472,0.18865,0.32939,0.065674,0.829,0.16129,0.43449,0.10208,0.081509,0.25793,0.87888,0.51815,0.73503,0.59996,0.50542,0.92884,0.89809,0.33384,0.64192,0.49088,0.90849,0.17642,0.11541,3
0.25117,0.26062,0.30979,0.46674,0.50719,0.22377,0.83839,0.14825,0.55977,0.28888,0.10053,0.25235,0.91967,0.61843,0.74473,0.56668,0.65406,0.93838,0.88013,0.33831,0.64357,0.41695,0.94379,0.40341,0.077605,6
0.51235,0.22901,0.46466,0.27753,0.33795,0.058932,0.87765,0.30611,0.44452,0.10128,0.11435,0.24788,0.82818,0.3279,0.75105,0.43888,0.34835,0.83071,0.8032,0.33926,0.63976,0.54301,0.85651,0.069823,0.071056,1
0.19104,0.012642,0.18821,0.013673,0.36396,0.085789,0.85621,0.14001,0.4652,0.12914,0.078285,0.7835,0.1232,0.27572,0.53241,0.68316,0.16466,0.73563,0.91306,0.7676,0.9202,0.98363,0.19734,0.010227,0.015865,9
0.57343,0.62885,0.65483,0.67239,0.43638,0.29727,0.84923,0.13521,0.52743,0.28854,0.1806,0.19226,0.86043,0.36994,0.80134,0.98625,0.31935,0.78634,0.70662,0.29566,0.58623,0.37437,0.91539,0.048899,0.14628,8
0.37843,0.33971,0.37701,0.31486,0.37018,0.1233,0.82659,0.088538,0.46182,0.15335,0.13499,0.16274,0.94183,0.55586,0.81175,0.42779,0.53207,0.85364,0.77655,0.246,0.53881,0.35819,0.94039,0.11784,0.22761,1
0.27249,0.10989,0.28957,0.17461,0.39452,0.13635,0.83935,0.12903,0.47584,0.17276,0.10784,0.19526,0.92177,0.51971,0.7782,0.63305,0.53127,0.91342,0.83928,0.27164,0.57481,0.382,0.94713,0.11546,0.10011,6
0.53151,0.25527,0.48648,0.2609,0.38816,0.1071,0.8644,0.13109,0.5,0.1538,0.15477,0.2224,0.77992,0.27625,0.77402,0.42519,0.25779,0.77854,0.75463,0.32165,0.61832,0.59498,0.79827,0.11677,0.084842,3
0.40894,0.19627,0.37643,0.20492,0.31555,0.043819,0.83261,0.13315,0.42825,0.082325,0.086897,0.37626,0.73139,0.40582,0.69046,0.52832,0.3462,0.8583,0.88181,0.48341,0.74358,0.66756,0.78421,0.32168,0.19443,3
0.41891,0.33452,0.47646,0.46452,0.46326,0.16136,0.86103,0.17914,0.51607,0.22494,0.12213,0.22113,0.8386,0.31716,0.75927,0.88241,0.33288,0.8462,0.79272,0.29773,0.606,0.48801,0.88584,0.229,0.29674,2
0.22624,0.051216,0.2204,0.04527,0.3447,0.082636,0.84393,0.14894,0.46162,0.11761,0.095212,0.33725,0.68495,0.3278,0.68992,0.50359,0.26948,0.81582,0.85134,0.40688,0.70952,0.73119,0.7135,0.018572,0.020304,9
0.4766,0.37812,0.45704,0.34017,0.48913,0.15418,0.91739,0.22032,0.57666,0.23613,0.10728,0.23543,0.88339,0.49564,0.76004,0.47494,0.41805,0.86985,0.81433,0.32784,0.62708,0.46728,0.90813,0.103,0.14575,3
0.35886,0.11086,0.3622,0.11973,0.30525,0.046972,0.80154,0.10501,0.40481,0.081411,0.10178,0.27377,0.82463,0.42402,0.72375,0.62315,0.39041,0.87307,0.86271,0.34624,0.6568,0.57971,0.84554,0.10785,0.081934,3
0.24914,0.21524,0.231,0.17664,0.36135,0.059802,0.84562,0.18257,0.46899,0.12115,0.11967,0.39327,0.48996,0.20829,0.66264,0.48376,0.17904,0.73731,0.81001,0.45611,0.74501,0.86634,0.51867,0.038408,0.090078,9
0.29792,0.096759,0.3121,0.12842,0.36784,0.089703,0.87066,0.13864,0.47103,0.13005,0.11622,0.24901,0.81769,0.3868,0.74264,0.6865,0.33249,0.85638,0.82332,0.32833,0.63642,0.55672,0.85675,0.15117,0.082341,4
0.45596,0.39465,0.46568,0.37251,0.35995,0.075568,0.82779,0.14825,0.44023,0.12628,0.11955,0.22128,0.88611,0.44502,0.76573,0.7869,0.43289,0.86763,0.82103,0.30748,0.61115,0.44723,0.91033,0.17144,0.084513,1
0.42968,0.38152,0.42325,0.32797,0.46185,0.12939,0.88174,0.18325,0.55476,0.21352,0.18452,0.14336,0.82382,0.23651,0.82942,0.73378,0.19479,0.74978,0.67186,0.22435,0.50956,0.48163,0.85661,0.19286,0.035481,3
0.31969,0.14538,0.34154,0.18071,0.4347,0.1295,0.84465,0.16953,0.52477,0.20142,0.11369,0.26423,0.82476,0.43489,0.73202,0.91779,0.35496,0.84893,0.8218,0.34134,0.64995,0.56486,0.85007,0.10972,0.096408,5
0.32929,0.12658,0.32411,0.12639,0.29636,0.048494,0.79841,0.086479,0.40102,0.075588,0.16752,0.32097,0.80261,0.43925,0.72684,0.46518,0.4122,0.80072,0.80027,0.44405,0.71039,0.64024,0.77952,0.0278,0.067648,3
0.21452,0.016207,0.21163,0.017554,0.48131,0.1793,0.90487,0.38984,0.55906,0.24503,0.08069,0.74064,0.16598,0.28065,0.5463,0.78339,0.1692,0.73871,0.89807,0.74113,0.90958,0.9735,0.24819,0.021056,0.082997,9
0,0,0,0,0,0,0,0,0,0,0,0,0,0,0,0,0,0,0,0,0,1,0,0,0,9
0.48129,0.22301,0.46856,0.21286,0.41304,0.10177,0.90125,0.19012,0.50471,0.16214,0.069493,0.36152,0.79345,0.4882,0.67882,0.64894,0.44511,0.91382,0.93017,0.43064,0.72756,0.62419,0.83097,0.14881,0.032808,3
0.52461,0.41167,0.49401,0.37398,0.35881,0.080787,0.82972,0.14139,0.45343,0.12891,0.111,0.31559,0.83598,0.54135,0.7023,0.44367,0.46049,0.85609,0.84201,0.38913,0.69287,0.58548,0.83846,0.19677,0.16307,1
0.26253,0.063047,0.24989,0.06578,0.49756,0.16723,0.93858,0.33974,0.61873,0.24697,0.22047,0.16682,0.76638,0.22041,0.80592,0.33161,0.17146,0.67513,0.62824,0.24778,0.53799,0.60569,0.75334,0.034794,0.048532,9
0.4093,0.3107,0.40534,0.28603,0.36182,0.079156,0.83117,0.12217,0.45281,0.12902,0.064163,0.31718,0.87956,0.61571,0.68295,0.62684,0.61386,0.96039,0.94351,0.35551,0.67488,0.5088,0.91086,0.06158,0.09633,3
0,0,0,0,0,0,0,0,0,0,0,0,0,0,0,0,0,0,0,0,0,1,0,0,0,10
0.51821,0.87439,0.4898,0.81356,0.41692,0.14179,0.8591,0.18119,0.51914,0.19262,0.31455,0.24229,0.95723,0.62568,0.80597,0.31914,0.45687,0.69009,0.59673,0.40627,0.63519,0.2961,0.92965,0.055967,0.082575,1
0.69933,0.41475,0.64565,0.39302,0.29776,0.060781,0.81503,0.11599,0.41218,0.07947,0.12902,0.28511,0.84333,0.50723,0.75312,0.43755,0.43682,0.83841,0.82262,0.41707,0.68324,0.57018,0.84215,0.12348,0.23852,1
0,0,0,0,0,0,0,0,0,0,0,0,0,0,0,0,0,0,0,0,0,1,0,0,0,10
0.53237,0.26775,0.5192,0.24353,0.38221,0.1009,0.84778,0.14345,0.47482,0.14981,0.16586,0.18968,0.78602,0.20173,0.78166,0.55837,0.21403,0.76019,0.71307,0.26476,0.56752,0.5599,0.81894,0.081489,0.15304,3
0.22381,0.058023,0.21881,0.054878,0.38522,0.11732,0.8184,0.1256,0.45486,0.1602,0.10141,0.4016,0.64809,0.33286,0.66362,0.5478,0.28677,0.81239,0.86741,0.47433,0.75,0.76951,0.67069,0.023524,0.032011,9
0.21502,0.083306,0.20599,0.075758,0.36108,0.089594,0.85043,0.28003,0.45701,0.13279,0.071612,0.56412,0.48568,0.35034,0.59079,0.57731,0.25665,0.81272,0.9211,0.58383,0.83276,0.87345,0.53178,0.011138,0.023477,9
0.30581,0.053809,0.27827,0.12047,0.43216,0.14363,0.84441,0.13246,0.5217,0.20427,0.1543,0.33105,0.8488,0.59701,0.73705,0.51568,0.53321,0.84892,0.8358,0.48127,0.7225,0.54557,0.86186,0.041039,0.038513,1
0.41557,0.38849,0.41026,0.34202,0.3875,0.099706,0.86946,0.13727,0.48516,0.14855,0.15783,0.192,0.80613,0.27359,0.79237,0.61307,0.24504,0.785,0.73855,0.28368,0.58128,0.52793,0.84077,0.12595,0.0269,3
0.34435,0.17715,0.42285,0.47284,0.39278,0.12482,0.84923,0.13521,0.48229,0.16602,0.070267,0.25509,0.91162,0.66529,0.71261,0.76934,0.63638,0.95561,0.91462,0.29065,0.60969,0.44432,0.93793,0.12379,0.36847,6
0.48319,0.2705,0.49752,0.284,0.43129,0.11036,0.91498,0.40563,0.54043,0.18269,0.083332,0.22271,0.93294,0.55717,0.74735,0.81034,0.60091,0.95897,0.8773,0.28299,0.59511,0.36313,0.96491,0.15812,0.04053,2
0.36463,0.15689,0.34739,0.15299,0.38068,0.086115,0.86416,0.1558,0.47032,0.13896,0.12086,0.34113,0.73154,0.36646,0.70318,0.45063,0.32467,0.80895,0.83114,0.43987,0.7232,0.69623,0.73807,0.021893,0.10582,3
0.36391,0.13144,0.34632,0.13932,0.32578,0.045776,0.8237,0.12011,0.42323,0.092144,0.088983,0.35562,0.80197,0.49367,0.68628,0.56315,0.45324,0.88876,0.90047,0.43476,0.7245,0.62654,0.82151,0.053983,0.082153,3
0,0,0,0,0,0,0,0,0,0,0,0,0,0,0,0,0,0,0,0,0,1,0,0,0,10
0.45614,0.15932,0.4961,0.30192,0.39519,0.084593,0.85573,0.19629,0.47441,0.15186,0.068998,0.31205,0.84986,0.56173,0.69325,0.69691,0.50529,0.92901,0.92291,0.36547,0.67997,0.5657,0.87538,0.21067,0.29012,2
0.26208,0.17618,0.37807,0.66648,0.36924,0.13885,0.83478,0.17982,0.46807,0.16214,0.070591,0.25547,0.93678,0.82055,0.73809,0.60587,0.7993,0.98463,0.92465,0.33392,0.64152,0.37201,0.9681,0.30678,0.77081,6
0,0,0,0,0,0,0,0,0,0,0,0,0,0,0,0,0,0,0,0,0,1,0,0,0,9
0.7303,0.91767,0.63049,0.92664,0.41558,0.13156,0.88439,0.15854,0.54811,0.18018,0.20566,0.12354,0.98194,0.66165,0.87269,0.57151,0.68586,0.76825,0.67173,0.22261,0.48328,0.14553,0.98383,0.18514,0.32114,3
0.70546,0.33339,0.6417,0.35994,0.34945,0.1519,0.8237,0.047358,0.4696,0.16259,0.11105,0.30808,0.8226,0.46271,0.70922,0.42559,0.4366,0.84654,0.83489,0.38739,0.69029,0.55733,0.85138,0.087925,0.11168,1
0.33533,0.10324,0.30642,0.14634,0.45015,0.11428,0.86874,0.21414,0.53715,0.2029,0.17665,0.22921,0.92596,0.64509,0.76265,0.44401,0.5552,0.82114,0.76826,0.3191,0.6207,0.44149,0.90601,0.053278,0.032074,1
0,0,0,0,0,0,0,0,0,0,0,0,0,0,0,0,0,0,0,0,0,1,0,0,0,9
0.49382,0.27861,0.44524,0.30303,0.30184,0.051212,0.80299,0.081675,0.41617,0.079356,0.098731,0.30377,0.85044,0.52244,0.73566,0.48402,0.50115,0.8881,0.86751,0.4254,0.698,0.51277,0.88763,0.10808,0.16912,3
0.32433,0.20956,0.37776,0.42591,0.40642,0.12624,0.83357,0.14894,0.47369,0.17664,0.09649,0.27439,0.86181,0.52373,0.72847,0.59138,0.47894,0.9092,0.87748,0.35564,0.6571,0.50335,0.89946,0.39356,0.089312,6
0.54535,0.2235,0.45646,0.42147,0.39164,0.08829,0.8302,0.15511,0.47533,0.15586,0.16812,0.36097,0.77616,0.4905,0.73975,0.37885,0.39122,0.78108,0.77098,0.54481,0.74495,0.59754,0.80864,0.082518,0.14478,1
0.26654,0.079579,0.27507,0.1068,0.37673,0.10166,0.83719,0.10501,0.46694,0.14672,0.13959,0.25257,0.87124,0.49752,0.7569,0.51707,0.47057,0.85187,0.8142,0.35768,0.64894,0.50513,0.87897,0.01894,0.049611,4
0.46516,0.23128,0.48173,0.2609,0.44574,0.14635,0.87572,0.18119,0.51576,0.20587,0.13397,0.19136,0.85834,0.35545,0.78425,0.71486,0.32322,0.84075,0.78034,0.27169,0.57381,0.45925,0.89803,0.17597,0.094658,4
0.26668,0.13015,0.34025,0.47099,0.34457,0.091552,0.80901,0.10089,0.43613,0.12503,0.1653,0.17097,0.9423,0.58224,0.81836,0.51572,0.56412,0.86647,0.77299,0.27118,0.55787,0.29896,0.96429,0.21344,0.21262,6
0.52047,0.49757,0.53489,0.47284,0.42708,0.12406,0.86272,0.18806,0.49427,0.18589,0.1192,0.22874,0.82069,0.33096,0.75985,0.7529,0.30918,0.81095,0.77731,0.314,0.61935,0.50408,0.86621,0.16376,0.13522,3
0,0,0,0,0,0,0,0,0,0,0,0,0,0,0,0,0,0,0,0,0,1,0,0,0,10
0.58795,0.69044,0.62534,0.68921,0.42688,0.26248,0.82514,0.13384,0.48076,0.24983,0.063064,0.60373,0.72138,0.57755,0.56927,0.7754,0.52469,0.91215,0.97194,0.58755,0.84186,0.70746,0.76863,0.25201,0.23947,8
0.46804,0.19935,0.43771,0.23411,0.38482,0.088398,0.85188,0.1709,0.46796,0.1457,0.083158,0.3029,0.8524,0.55527,0.73663,0.5322,0.49491,0.91164,0.89303,0.4252,0.69691,0.51994,0.89457,0.14352,0.094189,1
0.19167,0.012156,0.18799,0.014043,0.35894,0.071871,0.82803,0.14413,0.45404,0.12617,0.092505,0.68437,0.18357,0.26499,0.57122,0.59969,0.16251,0.7302,0.88517,0.72967,0.89716,0.97036,0.25999,0.03954,0.025493,9
0.25365,0.056402,0.23947,0.075018,0.33052,0.0934,0.81069,0.048044,0.43582,0.11658,0.09951,0.26907,0.90779,0.68181,0.73105,0.5148,0.62745,0.89662,0.86975,0.34937,0.65522,0.48535,0.90594,0.030224,0.018819,1
0.21506,0.09222,0.20497,0.08204,0.3001,0.036969,0.81286,0.11187,0.4042,0.072163,0.15033,0.32027,0.56901,0.24282,0.69936,0.44115,0.17694,0.70007,0.75,0.3926,0.69712,0.80487,0.59648,0.010491,0.10003,9
0.37523,0.17699,0.38432,0.20381,0.30739,0.05143,0.80347,0.096774,0.40911,0.084152,0.087775,0.25405,0.90011,0.60179,0.74424,0.68707,0.58067,0.93001,0.88646,0.34104,0.64341,0.46661,0.91919,0.026948,0.051408,4
0.56392,0.54149,0.64525,0.68736,0.5348,0.2989,0.89017,0.22512,0.58342,0.33135,0.072806,0.22733,0.94414,0.67893,0.76104,0.71031,0.71953,0.98376,0.90125,0.31291,0.61157,0.33781,0.97747,0.081651,0.48259,8
0.40624,0.22723,0.39918,0.21785,0.37492,0.08144,0.81792,0.12629,0.47062,0.14307,0.067544,0.32873,0.87601,0.65265,0.70227,0.60464,0.62921,0.96209,0.95213,0.41425,0.70712,0.52188,0.90396,0.052543,0.084013,3
0.30459,0.15462,0.31312,0.17406,0.61739,0.50169,0.8685,0.19286,0.58076,0.45124,0.10051,0.26416,0.8271,0.42839,0.72678,0.86294,0.33918,0.85834,0.82412,0.3325,0.64412,0.55971,0.86123,0.16947,0.015036,8
0.73652,0.93485,0.78199,0.92572,0.48064,0.25313,0.85453,0.1709,0.52047,0.27312,0.081107,0.4546,0.77476,0.43057,0.64761,0.65501,0.45111,0.87425,0.90433,0.53361,0.78566,0.64111,0.81463,0.36303,0.42488,8
0.22449,0.039384,0.25778,0.19143,0.40448,0.10471,0.84778,0.14756,0.49253,0.16739,0.083455,0.25759,0.91079,0.67973,0.72164,0.72421,0.61198,0.95087,0.89271,0.31094,0.62805,0.424,0.94149,0.11174,0.12872,6
0.2784,0.12755,0.25716,0.13415,0.36035,0.065239,0.85405,0.1606,0.46274,0.12,0.15076,0.26699,0.82404,0.44418,0.7546,0.40246,0.3566,0.78845,0.76539,0.38319,0.66498,0.59026,0.81051,0.074187,0.095939,1
0.31644,0.10454,0.34105,0.2306,0.4325,0.12558,0.86994,0.17776,0.51842,0.19217,0.15007,0.27858,0.88835,0.60027,0.7402,0.45869,0.58516,0.86304,0.81933,0.38317,0.67405,0.46273,0.9017,0.31334,0.12042,4
0.38167,0.25543,0.41363,0.30968,0.66593,0.59954,0.86826,0.18806,0.67472,0.56805,0.13406,0.17964,0.92949,0.50421,0.78546,0.93467,0.41497,0.85861,0.75506,0.24895,0.54964,0.34074,0.9503,0.14239,0.030229,8
0.38735,0.55851,0.40605,0.51774,0.37506,0.10884,0.83117,0.11736,0.46346,0.14992,0.17899,0.10034,0.96768,0.37778,0.87827,0.64618,0.38373,0.84531,0.69382,0.17552,0.42977,0.11134,1,0.14499,0.069571,2
0.59872,0.30729,0.53383,0.34608,0.34604,0.073176,0.84321,0.11668,0.46387,0.11281,0.097549,0.28258,0.80893,0.39953,0.72836,0.4811,0.37444,0.8639,0.84974,0.37151,0.67164,0.56763,0.84801,0.2725,0.0072838,3
0.25609,0.12415,0.35493,0.72247,0.51281,0.2914,0.84778,0.14756,0.54862,0.3148,0.10338,0.25679,0.9301,0.76804,0.74664,0.47258,0.75734,0.90656,0.85642,0.35021,0.6507,0.4162,0.93434,0.30934,0.45078,6
0.46921,0.40891,0.43221,0.36253,0.30772,0.056975,0.80949,0.085106,0.41392,0.084951,0.11764,0.33245,0.80677,0.36077,0.71065,0.4285,0.40012,0.83858,0.82944,0.43692,0.71795,0.60235,0.82709,0.23345,0.15507,3
0.50194,0.2778,0.49441,0.26423,0.36209,0.087202,0.82731,0.13933,0.45548,0.13393,0.071018,0.34579,0.8604,0.56594,0.67939,0.62488,0.57333,0.93393,0.93079,0.40229,0.70981,0.5546,0.88194,0.085721,0.18675,3
0.45096,0.43501,0.48147,0.39671,0.4,0.15472,0.85284,0.14139,0.50389,0.18691,0.15259,0.19591,0.77957,0.22946,0.78689,0.86521,0.22181,0.76921,0.72321,0.28464,0.58271,0.5588,0.81751,0.14474,0.51777,3
0.33772,0.15721,0.34663,0.18126,0.39659,0.093509,0.83526,0.14139,0.48178,0.15985,0.20636,0.24149,0.85013,0.43313,0.77341,0.54982,0.3928,0.7971,0.74613,0.35978,0.63847,0.51783,0.85767,0.12735,0.15063,3
0.38293,0.20113,0.36153,0.19438,0.34537,0.058606,0.84441,0.1407,0.44974,0.10767,0.082908,0.327,0.82911,0.53112,0.7127,0.53968,0.44852,0.9038,0.89385,0.4301,0.71349,0.56833,0.86858,0.15453,0.15335,3
0.4528,0.28606,0.47921,0.30192,0.34751,0.064912,0.82611,0.13384,0.44381,0.11521,0.11999,0.21284,0.87622,0.41647,0.78003,0.59872,0.40987,0.87335,0.82137,0.31039,0.60801,0.45106,0.90905,0.1591,0.2155,4
0.31167,0.19546,0.39731,0.50259,0.43297,0.1955,0.85236,0.1407,0.52651,0.22825,0.080721,0.20676,0.95511,0.80868,0.76443,0.66074,0.76987,0.97689,0.88957,0.27599,0.58395,0.33502,0.97885,0.19959,0.31106,6
0.39718,0.23485,0.44187,0.34146,0.43149,0.13733,0.85308,0.15443,0.50051,0.19616,0.084111,0.26841,0.85448,0.49314,0.70945,0.77651,0.44928,0.90918,0.87921,0.31106,0.63054,0.50391,0.89918,0.21322,0.16648,2
0.48905,0.60486,0.54908,0.71101,0.70893,0.6675,0.8762,0.21894,0.66008,0.59888,0.08926,0.39428,0.90452,0.79937,0.65153,0.48147,0.65955,0.9023,0.87016,0.43357,0.73787,0.49956,0.91077,0.20563,0.054331,8
0.26429,0.019611,0.2584,0.022173,0.51073,0.19289,0.90968,0.19629,0.59642,0.26867,0.086791,0.67782,0.16486,0.25584,0.56324,0.56881,0.15512,0.72416,0.88344,0.69398,0.88928,0.98294,0.19781,0.027374,0.02604,9
0.41561,0.29433,0.43731,0.29176,0.34457,0.069044,0.83887,0.12354,0.4477,0.11156,0.089602,0.26391,0.8428,0.46182,0.71793,0.79697,0.41084,0.89655,0.87057,0.317,0.63437,0.53003,0.8829,0.11412,0.06274,4
0,0,0,0,0,0,0,0,0,0,0,0,0,0,0,0,0,0,0,0,0,1,0,0,0,10
0.74301,0.59352,0.76133,0.54047,0.51494,0.20257,0.94099,0.31778,0.62559,0.27586,0.12152,0.15352,0.92291,0.44703,0.82176,0.75957,0.41462,0.88275,0.79327,0.23781,0.52699,0.34203,0.95441,0.18835,0.30603,8
0.22435,0.030956,0.21327,0.042498,0.43042,0.12917,0.87572,0.1558,0.53388,0.1916,0.11275,0.41598,0.64995,0.37983,0.65737,0.54695,0.29415,0.79033,0.85077,0.48605,0.76501,0.78271,0.65364,0.058112,0.065007,9
0.21191,0.017342,0.21034,0.019771,0.38027,0.094922,0.82225,0.11805,0.47523,0.15095,0.067099,0.79013,0.24401,0.32937,0.53363,0.7089,0.21119,0.78185,0.94459,0.78022,0.92867,0.96895,0.27464,0.039613,0.012989,9
0.23328,0.11572,0.31059,0.48152,0.3889,0.13048,0.78685,0.10364,0.46377,0.17698,0.063264,0.26902,0.95199,1,0.70971,0.62054,1,0.99387,0.94401,0.31272,0.63142,0.38237,0.96803,0.19166,0.10289,6
0.63861,0.27569,0.56349,0.37546,0.49569,0.13015,0.921,0.23542,0.59191,0.23247,0.21797,0.20233,0.83191,0.33538,0.8185,0.33026,0.24766,0.70811,0.65698,0.338,0.59557,0.52545,0.82839,0.02395,0.054831,1
0.28539,0.18266,0.2635,0.16722,0.53795,0.17701,0.92702,0.2766,0.61883,0.28054,0.20812,0.25287,0.55413,0.1643,0.73966,0.3979,0.13759,0.64626,0.67434,0.33138,0.6381,0.81036,0.55576,0.032884,0.07326,9
0.38902,0.31086,0.44134,0.42683,0.42026,0.12471,0.84995,0.15786,0.49969,0.18554,0.095955,0.174,0.96223,0.65856,0.77675,0.86084,0.57302,0.93953,0.81254,0.22572,0.52033,0.2547,0.99233,0.12597,0.17379,2
0.28512,0.14749,0.41017,0.86899,0.52337,0.26509,0.85694,0.1709,0.56131,0.31034,0.07558,0.34631,0.88943,0.75688,0.66763,0.5111,0.73265,0.93895,0.92288,0.37953,0.69685,0.4834,0.918,0.27297,0.31894,6
0.38604,0.24652,0.43061,0.32927,0.4127,0.14189,0.8396,0.13246,0.49621,0.18908,0.11685,0.16,0.90711,0.35235,0.80223,0.81892,0.37353,0.87852,0.78879,0.22888,0.52175,0.38215,0.93747,0.064283,0.018288,2
0.46024,0.23436,0.4812,0.28012,0.4337,0.10917,0.98868,0.67261,0.5262,0.17869,0.098526,0.18705,0.91176,0.46187,0.78239,0.73429,0.46454,0.91801,0.84731,0.2603,0.56315,0.39567,0.94192,0.15524,0.15463,2
0.37847,0.097083,0.43314,0.34165,0.38663,0.082309,0.85597,0.16129,0.47451,0.14444,0.061778,0.25859,0.92557,0.74505,0.71792,0.71223,0.73126,0.98795,0.94534,0.30659,0.62485,0.42051,0.95335,0.21097,0.19147,6
0.27006,0.14749,0.3328,0.47432,0.45777,0.18267,0.84321,0.17639,0.5086,0.23282,0.077034,0.29605,0.93539,0.94446,0.69622,0.5865,0.89668,0.97476,0.9127,0.3405,0.65894,0.38952,0.96201,0.10207,0.12528,6
0.51438,0.26888,0.51339,0.27679,0.39525,0.099272,0.87259,0.17159,0.49335,0.15449,0.081764,0.25434,0.88679,0.55024,0.73712,0.7473,0.51784,0.93438,0.89138,0.33011,0.64005,0.4578,0.9255,0.1922,0.2272,3
0.18378,0.012966,0.18068,0.014043,0.35466,0.081005,0.81912,0.11942,0.44985,0.12754,0.1025,0.54648,0.22126,0.21777,0.60302,0.5599,0.13951,0.70344,0.83329,0.5857,0.82972,0.96565,0.27122,0.042567,0.0038451,9
0.44478,0.18136,0.41651,0.20713,0.32123,0.049364,0.84249,0.15854,0.43347,0.08712,0.11445,0.20169,0.90148,0.47517,0.78377,0.43454,0.43949,0.8609,0.80093,0.29245,0.59208,0.43241,0.91701,0.11283,0.067867,3
0.37315,0.18136,0.37098,0.17295,0.42762,0.098619,0.8526,0.17982,0.52262,0.18315,0.077764,0.23547,0.90664,0.58069,0.74753,0.72468,0.56455,0.95218,0.90421,0.3089,0.61839,0.43398,0.93799,0.054218,0.029432,3
0,0,0,0,0,0,0,0,0,0,0,0,0,0,0,0,0,0,0,0,0,1,0,0,0,10
0.32771,0.1906,0.32872,0.17997,0.34838,0.070349,0.83261,0.13384,0.44504,0.11612,0.099514,0.20012,0.90787,0.46935,0.76191,0.72438,0.4614,0.90173,0.83124,0.25882,0.56628,0.40842,0.93341,0.07235,0.090734,1
0.23251,0.059968,0.29418,0.3592,0.3889,0.12395,0.83333,0.11599,0.47513,0.16533,0.057939,0.34874,0.91665,0.94056,0.66489,0.7466,0.90942,1,0.96591,0.37844,0.69643,0.43171,0.95312,0.075406,0.043015,6
0.25568,0.16677,0.3947,0.87084,0.37987,0.12015,0.81021,0.11736,0.45998,0.16157,0.074878,0.28301,0.91808,0.77068,0.69616,0.54368,0.74652,0.94906,0.91101,0.31542,0.63744,0.43733,0.93853,0.47213,0.32611,6
0.28367,0.19417,0.25827,0.17701,0.54637,0.27302,0.92148,0.23679,0.65548,0.33307,0.37896,0.15668,0.82229,0.16402,0.85192,0.25627,0.19735,0.55694,0.50586,0.27637,0.53596,0.51053,0.76151,0.087793,0.023461,9
0.51992,0.28233,0.50643,0.26441,0.51046,0.18115,0.89475,0.21688,0.57789,0.26513,0.068705,0.36646,0.82231,0.51157,0.68406,0.62814,0.50591,0.93433,0.94691,0.45035,0.7361,0.59911,0.85611,0.18552,0.1954,3
0,0,0,0,0,0,0,0,0,0,0,0,0,0,0,0,0,0,0,0,0,1,0,0,0,10
0.37045,0.16661,0.39119,0.22025,0.36724,0.065239,0.84875,0.16335,0.45701,0.12571,0.095745,0.309,0.87355,0.56354,0.72734,0.57828,0.57493,0.92313,0.89111,0.4215,0.70112,0.49582,0.90764,0.26032,0.069164,4
0.34538,0.22674,0.38078,0.32576,0.31896,0.056649,0.8249,0.11736,0.42702,0.090774,0.21964,0.20489,0.92009,0.51848,0.81627,0.57379,0.5401,0.81445,0.73395,0.34063,0.60105,0.36892,0.93144,0.10196,0.061615,4
0.44302,0.25429,0.49051,0.36013,0.42635,0.14864,0.85381,0.13658,0.50573,0.19799,0.11866,0.19934,0.87318,0.36023,0.77057,0.75451,0.371,0.8694,0.81056,0.26952,0.57572,0.47029,0.90095,0.069264,0.27103,4
0.245,0.049433,0.28829,0.26571,0.4214,0.15038,0.85501,0.13246,0.50839,0.19628,0.077169,0.20275,0.94092,0.66593,0.75197,0.5676,0.66705,0.95825,0.88637,0.24966,0.55672,0.35633,0.96556,0.11681,0.074338,6
0.21687,0.047812,0.21398,0.039172,0.28592,0.042731,0.79648,0.059025,0.39703,0.065426,0.11704,0.44453,0.34846,0.20514,0.63735,0.59624,0.14822,0.71317,0.81104,0.49227,0.77538,0.93115,0.37667,0.035734,0.046063,2
0.31496,0.19854,0.28234,0.18237,0.41605,0.13102,0.99831,0.57653,0.56305,0.17059,0.47331,0.17652,0.72472,0.19793,0.88192,0.23064,0.11244,0.47703,0.42559,0.34836,0.51096,0.60729,0.67918,0.063975,0.013489,9
0.45402,0.17407,0.42112,0.19937,0.3653,0.095792,0.82057,0.11736,0.452,0.13976,0.15892,0.29309,0.70082,0.31756,0.72279,0.3878,0.23799,0.7375,0.74503,0.38236,0.67751,0.72685,0.68819,0.12594,0.093657,1
0.23337,0.053647,0.23823,0.067443,0.47817,0.21942,0.85405,0.14619,0.53357,0.26136,0.1065,0.34061,0.69346,0.29789,0.68652,0.64452,0.27378,0.82207,0.8503,0.40662,0.71053,0.72637,0.71635,0.051456,0.073494,9
0.45542,0.24344,0.4471,0.21157,0.48445,0.21203,0.86488,0.15031,0.57451,0.26798,0.11104,0.22947,0.81424,0.32881,0.74281,0.53001,0.30422,0.83577,0.80861,0.28953,0.60221,0.56716,0.83755,0.22202,0.12164,3
0.70348,0.88071,0.80185,0.97247,0.7433,0.73209,0.90173,0.21414,0.76213,0.69377,0.15648,0.14865,0.95005,0.48449,0.83865,1,0.4,0.82445,0.69958,0.2455,0.52569,0.23008,0.9756,0.11151,0.15946,8
0.24225,0.054295,0.23575,0.048226,0.3429,0.062085,0.85356,0.14276,0.44667,0.10493,0.16521,0.34552,0.39193,0.19725,0.67858,0.50089,0.12433,0.65286,0.723,0.40035,0.70759,0.8937,0.44532,0.046945,0.044422,9
0.23711,0.071961,0.23224,0.066704,0.36249,0.093074,0.82442,0.11187,0.45107,0.13565,0.1454,0.22067,0.80376,0.32508,0.75463,0.49631,0.27869,0.77457,0.75386,0.28988,0.59976,0.60716,0.79482,0.012857,0.02715,1
0.19766,0.015073,0.19402,0.015521,0.32872,0.047842,0.83382,0.13315,0.44473,0.092715,0.076767,0.78363,0.16423,0.29544,0.54232,0.66354,0.17902,0.75062,0.92355,0.80176,0.93019,0.98245,0.20503,0.026507,0.0284,9
0.27024,0.13144,0.3344,0.41519,0.50879,0.24095,0.86344,0.16129,0.57881,0.29584,0.11444,0.14829,0.96024,0.60276,0.82512,0.58813,0.61031,0.92467,0.81991,0.23031,0.51775,0.24417,0.98943,0.19588,0.16395,6
0.55229,0.31831,0.46245,0.42055,0.29241,0.035338,0.81455,0.095402,0.4045,0.064741,0.16229,0.32603,0.73752,0.39144,0.74347,0.35336,0.30694,0.76502,0.7453,0.48223,0.7188,0.58663,0.80774,0.078227,0.066007,1
0,0,0,0,0,0,0,0,0,0,0,0,0,0,0,0,0,0,0,0,0,1,0,0,0,10
0.26104,0.078606,0.27135,0.10458,0.38683,0.11667,0.84803,0.37612,0.46919,0.16202,0.080662,0.41972,0.72334,0.43514,0.65115,0.60152,0.38756,0.86892,0.9153,0.47964,0.76268,0.71731,0.74274,0.048297,0.179,10
0.41877,0.24117,0.40068,0.22228,0.40782,0.082744,0.88439,0.22855,0.49437,0.15677,0.14743,0.19527,0.79309,0.28023,0.78103,0.71007,0.23075,0.77755,0.73605,0.27548,0.57875,0.5811,0.8139,0.10116,0.032308,1
0,0,0,0,0,0,0,0,0,0,0,0,0,0,0,0,0,0,0,0,0,1,0,0,0,10
0.34403,0.1047,0.33222,0.10791,0.5108,0.17756,0.87693,0.19423,0.58454,0.26878,0.084534,0.39804,0.81633,0.62688,0.67852,0.50156,0.49024,0.89561,0.8975,0.49797,0.76113,0.59306,0.8545,0.046622,0.065319,1
0.54246,0.28914,0.56141,0.31707,0.41558,0.11819,0.85405,0.13727,0.5175,0.18006,0.085654,0.20947,0.94712,0.70078,0.76697,0.56591,0.713,0.9571,0.88467,0.28516,0.59229,0.35995,0.96514,0.0623,0.044703,4
0.39037,0.2282,0.42263,0.32945,0.41545,0.13015,0.96869,0.69526,0.51054,0.17881,0.12745,0.19727,0.92938,0.51039,0.78317,0.68321,0.54625,0.90163,0.80987,0.28249,0.58433,0.33891,0.9619,0.2643,0.37183,4
0.3242,0.10827,0.33967,0.17036,0.36683,0.092421,0.85597,0.13109,0.46673,0.13348,0.095968,0.40001,0.81052,0.55476,0.69816,0.57528,0.53286,0.90825,0.90729,0.54157,0.77084,0.58276,0.85824,0.22828,0.13611,4
0.36531,0.18752,0.32637,0.22099,0.51408,0.16038,0.90655,0.2917,0.6089,0.26216,0.15253,0.17918,0.92455,0.51372,0.81558,0.41817,0.49727,0.84112,0.7729,0.28539,0.57002,0.37614,0.93153,0.037512,0.097518,1
0.52168,0.30227,0.43739,0.4418,0.32223,0.043058,0.8302,0.14207,0.42436,0.088376,0.14294,0.293,0.86418,0.56755,0.76104,0.44309,0.50817,0.84632,0.8199,0.44522,0.69206,0.47699,0.89854,0.027227,0.11995,1
0.28043,0.14749,0.33027,0.29823,0.66051,0.42688,0.89764,0.27385,0.68936,0.47739,0.082842,0.32265,0.81587,0.48021,0.6952,0.82777,0.4417,0.90947,0.89683,0.38948,0.69544,0.5452,0.87681,0.088909,0.063209,5
0.40678,0.40065,0.42959,0.36899,0.3219,0.082309,0.80684,0.056966,0.42825,0.10653,0.12892,0.17232,0.94152,0.52494,0.8049,0.91577,0.45827,0.88109,0.78041,0.25812,0.55353,0.31839,0.96363,0.12097,0.15913,2
0.28998,0.14976,0.3829,0.54084,0.57312,0.24802,0.86368,0.19492,0.63122,0.34471,0.071702,0.20974,0.96244,0.87432,0.76488,0.65318,0.88828,0.99003,0.91287,0.28272,0.59026,0.32124,0.98348,0.16978,0.27102,6
0.34241,0.22156,0.35874,0.2269,1,1,0.93039,0.25601,1,1,0.10024,0.25747,0.84001,0.40283,0.73504,0.75084,0.39893,0.8767,0.8517,0.33294,0.64294,0.5092,0.88816,0.081768,0.096361,9
0.57262,0.34295,0.53831,0.34035,0.35547,0.06687,0.83887,0.1359,0.46622,0.11921,0.11559,0.336,0.84574,0.57441,0.72788,0.45283,0.53788,0.8652,0.86184,0.47526,0.72459,0.57709,0.84628,0.20478,0.08517,3
0.21376,0.016207,0.2087,0.018293,0.36289,0.068609,0.85356,0.16198,0.46213,0.12286,0.0598,1,0.19162,0.38258,0.50347,0.65042,0.2412,0.80647,1,1,1,0.97342,0.26163,0.047504,0.04872,9
0.28246,0.055429,0.2584,0.096452,0.37834,0.069262,0.85718,0.1908,0.48117,0.13519,0.17347,0.26123,0.71168,0.28379,0.76433,0.43417,0.22675,0.74295,0.74119,0.38665,0.65885,0.6895,0.72042,0.07188,0.048173,9
0.1854,0.01248,0.18201,0.013858,0.34978,0.066217,0.8249,0.16266,0.44166,0.11829,0.072512,0.78037,0.2319,0.31573,0.53417,0.63656,0.20409,0.77383,0.94212,0.76675,0.92181,0.96483,0.29105,0.0053484,0.031917,9
0.27889,0.15138,0.2502,0.16408,0.29509,0.04545,0.79937,0.075498,0.40297,0.073076,0.20307,0.1786,0.90537,0.43828,0.79564,0.32676,0.36613,0.72661,0.66618,0.25987,0.55801,0.45428,0.86872,0.041861,0.077089,9
0.5211,0.20648,0.52909,0.23448,0.40655,0.092965,0.87139,0.16678,0.49171,0.15974,0.076121,0.26973,0.89344,0.59861,0.73496,0.65531,0.5876,0.94862,0.91804,0.35705,0.65997,0.47301,0.92191,0.13703,0.094876,4
0.34205,0.15397,0.38911,0.27069,0.42126,0.11656,0.85983,0.13178,0.5259,0.18223,0.095833,0.15839,0.96293,0.68339,0.80207,0.87173,0.65891,0.94749,0.84391,0.22528,0.51685,0.28743,0.98235,0.084883,0.070978,5
0.5581,0.22172,0.49229,0.32243,0.32477,0.052408,0.82129,0.12766,0.42416,0.094542,0.15987,0.31198,0.64861,0.29475,0.72309,0.32413,0.21499,0.70489,0.72028,0.41965,0.70365,0.72904,0.67798,0.051882,0.036059,3
0.45785,0.18347,0.41758,0.21175,0.36483,0.069697,0.84538,0.14894,0.47073,0.12628,0.086359,0.50089,0.62506,0.4201,0.66007,0.55077,0.33186,0.85068,0.91007,0.64811,0.82439,0.76741,0.68784,0.035132,0.029698,3
0,0,0,0,0,0,0,0,0,0,0,0,0,0,0,0,0,0,0,0,0,1,0,0,0,10
0.25352,0.20162,0.36499,0.65965,0.42581,0.18234,0.82081,0.12217,0.49836,0.21843,0.08084,0.20648,0.93972,0.68548,0.74729,0.69836,0.66617,0.95762,0.88488,0.25019,0.55825,0.35633,0.96784,0.077008,0.047798,6
0.39168,0.12366,0.36273,0.15669,0.46713,0.12548,0.88463,0.20796,0.55466,0.21592,0.11006,0.28266,0.78946,0.39828,0.72702,0.44726,0.32159,0.82913,0.81646,0.36923,0.67159,0.61381,0.81473,0.13192,0.056613,3
0.37761,0.1577,0.36508,0.16833,0.3227,0.060346,0.8078,0.10364,0.42211,0.097968,0.082509,0.42752,0.7385,0.46695,0.66878,0.56069,0.41798,0.87989,0.92134,0.5315,0.78302,0.69898,0.7633,0.14226,0.31183,3
0.25482,0.10891,0.24142,0.10477,0.4103,0.1146,0.85308,0.16678,0.48772,0.17321,0.1823,0.24658,0.64807,0.18712,0.736,0.42595,0.17429,0.68599,0.70063,0.31288,0.6258,0.75504,0.63746,0.066723,0.038388,9
0.38194,0.31378,0.37457,0.28917,0.3116,0.069479,0.79143,0.054907,0.41003,0.09557,0.088646,0.20861,0.90975,0.55543,0.7539,0.71542,0.48805,0.92099,0.85261,0.26438,0.57413,0.4164,0.94223,0.012666,0.040623,3
0.36698,0.14733,0.40348,0.23891,0.4652,0.16081,0.89571,0.19218,0.56673,0.22631,0.081261,0.21928,0.90942,0.54096,0.74184,0.79494,0.5392,0.93486,0.87743,0.26763,0.57994,0.42704,0.93482,0.032105,0.10413,2
0.36896,0.06953,0.38924,0.1517,0.37038,0.08481,0.87283,0.14345,0.47646,0.12982,0.084535,0.24119,0.89575,0.54688,0.74199,0.64553,0.53444,0.92569,0.88875,0.31171,0.62337,0.4673,0.91785,0.0247,0.1481,4
0.56198,0.45041,0.53627,0.42073,0.40548,0.11982,0.85332,0.17639,0.49406,0.17413,0.11104,0.23047,0.8939,0.52134,0.77785,0.4995,0.48915,0.8838,0.82666,0.34357,0.63126,0.39452,0.9396,0.19572,0.16953,3
0.30441,0.13679,0.28793,0.1299,0.4882,0.18713,0.86103,0.15649,0.56899,0.25908,0.12561,0.23539,0.84955,0.3282,0.75158,0.48724,0.35725,0.83713,0.80064,0.31498,0.62279,0.53885,0.86136,0.035587,0.0095502,1
0.28426,0.24554,0.25703,0.23356,0.38328,0.086332,0.85501,0.17296,0.48188,0.14512,1,0.021838,1,0.11822,1,0.19576,0.14172,0.23874,0.19607,0.051034,0.16491,0,0.76051,0.0030856,0.15338,9
0.35958,0.10146,0.35679,0.13932,0.33414,0.054583,0.81768,0.14345,0.43265,0.10368,0.15177,0.33709,0.85597,0.60161,0.73394,0.53172,0.57426,0.81802,0.8118,0.48793,0.72416,0.58721,0.82732,0.137,0.1407,4
0.21615,0.021556,0.20883,0.027901,0.33601,0.081766,0.81888,0.096088,0.43767,0.11384,0.090197,0.5456,0.47625,0.33193,0.60167,0.59307,0.24315,0.78357,0.89153,0.58243,0.82737,0.8839,0.50294,0.060404,0.024524,9
0.22895,0.042464,0.22382,0.04102,0.37212,0.08829,0.85983,0.19767,0.46817,0.13679,0.095109,0.40808,0.60031,0.27266,0.6485,0.58726,0.23777,0.79688,0.85446,0.45239,0.74472,0.7967,0.63466,0.04001,0.073275,9
0.23174,0.11248,0.33919,0.63803,0.38917,0.13309,0.82563,0.1208,0.487,0.17344,0.11646,0.23408,0.89972,0.54772,0.76141,0.47508,0.53423,0.88766,0.82184,0.32715,0.6285,0.39631,0.93439,0.3397,0.14938,6
0,0,0,0,0,0,0,0,0,0,0,0,0,0,0,0,0,0,0,0,0,1,0,0,0,10
0.4808,0.28136,0.54115,0.49409,0.49575,0.23029,0.86561,0.22992,0.57318,0.2842,0.1075,0.26401,0.89827,0.56206,0.75073,0.56538,0.58267,0.91766,0.85608,0.37107,0.66096,0.42352,0.93677,0.27092,0.13458,4
0.43365,0.34149,0.44493,0.34202,0.38857,0.099598,0.84513,0.16541,0.47165,0.15392,0.1027,0.20085,0.94008,0.58632,0.7779,0.52275,0.53377,0.91374,0.82029,0.28276,0.58649,0.32807,0.96757,0.050912,0.2152,1
0.53741,0.44133,0.52838,0.38599,0.3893,0.089377,0.85043,0.16335,0.48403,0.15118,0.098185,0.28251,0.76814,0.34388,0.7249,0.70259,0.31133,0.839,0.83235,0.36531,0.6614,0.6097,0.81445,0.057583,0.054112,4
0,0,0,0,0,0,0,0,0,0,0,0,0,0,0,0,0,0,0,0,0,1,0,0,0,10
0.53796,0.29141,0.53507,0.28936,0.34376,0.05828,0.91498,0.51887,0.44135,0.1095,0.090206,0.26725,0.84956,0.46794,0.72432,0.70163,0.43197,0.88059,0.86274,0.33442,0.64731,0.54464,0.86884,0.076258,0.34262,3
0.25852,0.068558,0.24519,0.070214,0.35801,0.073285,0.83309,0.14207,0.45548,0.12457,0.16866,0.3099,0.48552,0.1958,0.70502,0.42183,0.14114,0.66973,0.71778,0.38323,0.68768,0.87016,0.48181,0.05989,0.028369,1
0.19712,0.025608,0.19132,0.029564,0.35914,0.090138,0.80515,0.10844,0.44596,0.13622,0.093611,0.5172,0.62835,0.45533,0.62415,0.564,0.33441,0.8192,0.90196,0.5903,0.82208,0.80412,0.64393,0.019645,0.055035,9
0.40858,0.1893,0.42383,0.21526,0.38134,0.093509,0.85959,0.14756,0.47462,0.14353,0.081363,0.30142,0.85925,0.53286,0.71955,0.61438,0.51596,0.92764,0.9113,0.39302,0.68613,0.52142,0.89414,0.11461,0.19571,4
0,0,0,0,0,0,0,0,0,0,0,0,0,0,0,0,0,0,0,0,0,1,0,0,0,10
0.46326,0.33841,0.40986,0.38174,0.36536,0.10493,0.8225,0.095402,0.46725,0.14433,0.11806,0.16867,0.95135,0.58115,0.83436,0.4959,0.61003,0.90175,0.81104,0.28414,0.55415,0.26338,0.98328,0.034147,0.19518,1
0.42522,0.36969,0.42897,0.31948,0.44915,0.13526,0.83911,0.16266,0.53623,0.215,0.11634,0.20879,0.83467,0.31513,0.77357,0.77328,0.3102,0.84551,0.80133,0.2931,0.59519,0.51764,0.86847,0.022907,0.11077,3
0.42797,0.31248,0.43141,0.27624,0.36483,0.097967,0.81334,0.12011,0.45261,0.14204,0.082434,0.34009,0.74516,0.35807,0.68172,0.61069,0.33969,0.86422,0.88818,0.39621,0.70526,0.68081,0.77405,0.13299,0.057098,4
0.2097,0.019935,0.20524,0.020695,0.31053,0.045232,0.83285,0.18737,0.41279,0.079927,0.081584,0.59749,0.35048,0.26783,0.58321,0.61791,0.19872,0.76918,0.8976,0.61947,0.84975,0.92956,0.4004,0.010829,0.040451,9
0.78439,0.6966,0.74865,0.68976,0.55206,0.29477,0.88536,0.20247,0.58014,0.33558,0.086024,0.35041,0.92389,0.95744,0.71857,0.54078,0.88493,0.95542,0.91027,0.48627,0.72933,0.41381,0.95068,0.26786,0.18864,8
0.24342,0.067585,0.29059,0.27827,0.4125,0.096988,0.85116,0.19012,0.48792,0.17002,0.070112,0.38148,0.85332,0.71052,0.66006,0.83658,0.62186,0.94929,0.94321,0.42857,0.73251,0.54353,0.89433,0.062212,0.064866,6
0.29517,0.15835,0.27827,0.1554,0.50966,0.20942,0.87741,0.18806,0.61402,0.28374,0.26938,0.17359,0.9274,0.45811,0.82286,0.30924,0.35923,0.68754,0.61279,0.28193,0.56324,0.40392,0.88035,0.066003,0.069321,1
0.22038,0.064182,0.20923,0.059867,0.37165,0.097749,0.84634,0.33288,0.48884,0.14535,0.11513,0.33902,0.64753,0.25057,0.68195,0.48556,0.23806,0.7809,0.81216,0.3951,0.70106,0.76081,0.67017,0.023289,0.068711,1
0.4428,0.35203,0.43855,0.3167,0.34764,0.068283,0.8237,0.12697,0.45415,0.11658,0.098206,0.17711,0.92922,0.51999,0.79257,0.58634,0.51845,0.91682,0.84207,0.25286,0.55253,0.37131,0.94979,0.13434,0.18033,3
0.26911,0.052026,0.25228,0.085181,0.35272,0.071001,0.86898,0.29375,0.45189,0.11624,0.078715,0.36787,0.83233,0.5918,0.68709,0.53521,0.47793,0.9077,0.90056,0.45891,0.73379,0.58088,0.86407,0.07617,0.012911,1
0.50933,0.38687,0.49911,0.38932,0.45309,0.17647,0.89788,0.28346,0.56407,0.22916,0.11704,0.19812,0.91674,0.52472,0.81738,0.52312,0.48945,0.88482,0.8141,0.32764,0.59114,0.35605,0.95269,0.093229,0.053081,10
0.22769,0.01637,0.22462,0.017738,0.34517,0.077308,0.83695,0.10844,0.44872,0.11509,0.074204,0.82355,0.13758,0.30273,0.52424,0.63192,0.17837,0.75096,0.93429,0.80372,0.93595,0.98766,0.17342,0.023465,0.027291,9
0.25279,0.07342,0.3179,0.37897,0.38422,0.13602,0.83743,0.10776,0.47359,0.16659,0.069443,0.23612,0.95612,0.91301,0.73481,0.71669,0.92273,0.98693,0.92501,0.29018,0.605,0.35104,0.97544,0.043874,0.23775,6
0.30531,0.080389,0.35439,0.36548,0.46974,0.12906,0.89355,0.24228,0.54893,0.21797,0.14024,0.28699,0.86573,0.53741,0.74874,0.41328,0.51889,0.84476,0.80844,0.41383,0.68467,0.48614,0.88587,0.35318,0.16992,7
0.56176,0.28963,0.50993,0.32502,0.29856,0.042949,0.80997,0.096088,0.40123,0.072962,0.12331,0.36379,0.73465,0.43941,0.71475,0.39193,0.3089,0.79355,0.79665,0.50599,0.73463,0.68343,0.75321,0.23765,0.16778,1
0,0,0,0,0,0,0,0,0,0,0,0,0,0,0,0,0,0,0,0,0,1,0,0,0,10
0.41228,0.38136,0.48843,0.5497,0.52203,0.15266,0.89306,0.26699,0.59601,0.26684,0.09943,0.17571,0.94497,0.58709,0.78165,0.82741,0.51533,0.92947,0.81571,0.23578,0.53434,0.29893,0.97878,0.19454,0.053847,4
0.27105,0.15786,0.40627,0.82373,0.46968,0.15255,0.83165,0.17159,0.53501,0.23693,0.068677,0.33853,0.9095,0.84195,0.68549,0.59491,0.83427,0.97854,0.94683,0.4007,0.70684,0.45118,0.93953,0.57181,0.17483,6
0.25117,0.26062,0.30979,0.46674,0.50719,0.22377,0.83839,0.14825,0.55977,0.28888,0.10053,0.25235,0.91967,0.61843,0.74473,0.56668,0.65406,0.93838,0.88013,0.33831,0.64357,0.41695,0.94379,0.40341,0.077605,6
0.19104,0.012642,0.18821,0.013673,0.36396,0.085789,0.85621,0.14001,0.4652,0.12914,0.078285,0.7835,0.1232,0.27572,0.53241,0.68316,0.16466,0.73563,0.91306,0.7676,0.9202,0.98363,0.19734,0.010227,0.015865,9
0.57343,0.62885,0.65483,0.67239,0.43638,0.29727,0.84923,0.13521,0.52743,0.28854,0.1806,0.19226,0.86043,0.36994,0.80134,0.98625,0.31935,0.78634,0.70662,0.29566,0.58623,0.37437,0.91539,0.048899,0.14628,8
0.26974,0.19092,0.3763,0.74058,0.39191,0.13113,0.80732,0.12903,0.46837,0.17538,0.090048,0.33014,0.92642,0.92226,0.69995,0.5451,0.93759,0.94995,0.90132,0.41252,0.70735,0.42323,0.94394,0.10694,0.2592,6
0.27249,0.10989,0.28957,0.17461,0.39452,0.13635,0.83935,0.12903,0.47584,0.17276,0.10784,0.19526,0.92177,0.51971,0.7782,0.63305,0.53127,0.91342,0.83928,0.27164,0.57481,0.382,0.94713,0.11546,0.10011,10
0.41891,0.33452,0.47646,0.46452,0.46326,0.16136,0.86103,0.17914,0.51607,0.22494,0.12213,0.22113,0.8386,0.31716,0.75927,0.88241,0.33288,0.8462,0.79272,0.29773,0.606,0.48801,0.88584,0.229,0.29674,4
0.22624,0.051216,0.2204,0.04527,0.3447,0.082636,0.84393,0.14894,0.46162,0.11761,0.095212,0.33725,0.68495,0.3278,0.68992,0.50359,0.26948,0.81582,0.85134,0.40688,0.70952,0.73119,0.7135,0.018572,0.020304,9
0.45596,0.39465,0.46568,0.37251,0.35995,0.075568,0.82779,0.14825,0.44023,0.12628,0.11955,0.22128,0.88611,0.44502,0.76573,0.7869,0.43289,0.86763,0.82103,0.30748,0.61115,0.44723,0.91033,0.17144,0.084513,1
0.26253,0.063047,0.24989,0.06578,0.49756,0.16723,0.93858,0.33974,0.61873,0.24697,0.22047,0.16682,0.76638,0.22041,0.80592,0.33161,0.17146,0.67513,0.62824,0.24778,0.53799,0.60569,0.75334,0.034794,0.048532,9
0,0,0,0,0,0,0,0,0,0,0,0,0,0,0,0,0,0,0,0,0,1,0,0,0,10
0.38145,0.23712,0.3974,0.23429,0.36463,0.076438,0.84658,0.15305,0.46991,0.12845,0.085706,0.27183,0.83297,0.45389,0.71493,0.77896,0.40315,0.89791,0.8772,0.32729,0.6441,0.55601,0.86929,0.17992,0.08245,2
0.53237,0.26775,0.5192,0.24353,0.38221,0.1009,0.84778,0.14345,0.47482,0.14981,0.16586,0.18968,0.78602,0.20173,0.78166,0.55837,0.21403,0.76019,0.71307,0.26476,0.56752,0.5599,0.81894,0.081489,0.15304,3
0.48319,0.2705,0.49752,0.284,0.43129,0.11036,0.91498,0.40563,0.54043,0.18269,0.083332,0.22271,0.93294,0.55717,0.74735,0.81034,0.60091,0.95897,0.8773,0.28299,0.59511,0.36313,0.96491,0.15812,0.04053,10
0.48251,0.21605,0.47783,0.19863,0.41866,0.10645,0.88897,0.29856,0.51341,0.1739,0.084622,0.37502,0.7585,0.45171,0.66838,0.58633,0.39012,0.87901,0.90676,0.4343,0.73131,0.67174,0.7871,0.054586,0.20763,3
0.26668,0.13015,0.34025,0.47099,0.34457,0.091552,0.80901,0.10089,0.43613,0.12503,0.1653,0.17097,0.9423,0.58224,0.81836,0.51572,0.56412,0.86647,0.77299,0.27118,0.55787,0.29896,0.96429,0.21344,0.21262,6
0.57501,0.51037,0.55489,0.46471,0.47476,0.15211,0.94123,0.41043,0.57564,0.22585,0.068903,0.32632,0.89244,0.70012,0.7135,0.65241,0.69277,0.95406,0.93738,0.43025,0.71133,0.4787,0.92536,0.28892,0.071353,3
